{"failedCount":2,"prefixedPath":"src\/test\/java\/features\/queryparam.feature","packageQualifiedName":"src.test.java.features.queryparam","loopIndex":-1,"relativePath":"src\/test\/java\/features\/queryparam.feature","scenarioResults":[{"sectionIndex":0,"stepResults":[{"result":{"nanos":60380600,"millis":60.3806,"status":"passed"},"step":{"line":3,"prefix":"*","index":0,"text":"def query = {status:'active'}"}},{"result":{"nanos":1385100,"millis":1.3851,"status":"passed"},"step":{"line":4,"prefix":"Given","index":1,"text":"url baseUrl"}},{"result":{"nanos":7001000,"millis":7.001,"status":"passed"},"step":{"line":5,"prefix":"And","index":2,"text":"params query"}},{"result":{"nanos":2520553800,"millis":2520.5538,"status":"passed"},"step":{"line":6,"prefix":"When","index":3,"text":"method GET"},"stepLog":"09:21:04.131 request:\n1 > GET https:\/\/gorest.co.in\/public\/v2\/users?status=active\n1 > Host: gorest.co.in\n1 > Connection: Keep-Alive\n1 > User-Agent: Apache-HttpClient\/4.5.12 (Java\/17.0.10)\n1 > Accept-Encoding: gzip,deflate\n\n\n09:21:06.242 response time in milliseconds: 2108\n1 < 200\n1 < Date: Tue, 07 May 2024 03:51:14 GMT\n1 < Content-Type: application\/json; charset=utf-8\n1 < Transfer-Encoding: chunked\n1 < Connection: keep-alive\n1 < Cache-Control: max-age=0, private, must-revalidate\n1 < etag: W\/\"afc60dfab3eea2c2851ab8f396203cd5\"\n1 < referrer-policy: strict-origin-when-cross-origin\n1 < vary: Origin\n1 < x-content-type-options: nosniff\n1 < x-download-options: noopen\n1 < x-frame-options: SAMEORIGIN\n1 < x-links-current: https:\/\/gorest.co.in\/public\/v2\/users?page=1\n1 < x-links-next: https:\/\/gorest.co.in\/public\/v2\/users?page=2\n1 < x-links-previous: \n1 < x-pagination-limit: 10\n1 < x-pagination-page: 1\n1 < x-pagination-pages: 145\n1 < x-pagination-total: 1441\n1 < x-permitted-cross-domain-policies: none\n1 < x-request-id: 77a19628-9a9f-43b7-8337-6b4c115b214f\n1 < x-runtime: 0.028648\n1 < x-xss-protection: 0\n1 < CF-Cache-Status: DYNAMIC\n1 < Report-To: {\"endpoints\":[{\"url\":\"https:\\\/\\\/a.nel.cloudflare.com\\\/report\\\/v4?s=FAnNZbLAU3PgVDPQ2Li9HKCySJ2AbkV5oQdJOy%2FIOteSYJJDboxzNCKS5WyUUerhu5MFtKFJxe6Hm6xuFEXQ8rDO5rS1h6lHgXeWsNJhp7dBEP9M07PBhXDZvZxpgmE%3D\"}],\"group\":\"cf-nel\",\"max_age\":604800}\n1 < NEL: {\"success_fraction\":0,\"report_to\":\"cf-nel\",\"max_age\":604800}\n1 < Server: cloudflare\n1 < CF-RAY: 87fe40144fdf36c1-YYZ\n1 < alt-svc: h3=\":443\"; ma=86400\n[{\"id\":6892536,\"name\":\"Aagam Sharma\",\"email\":\"sharma_aagam@oreilly.example\",\"gender\":\"female\",\"status\":\"active\"},{\"id\":6892531,\"name\":\"Vidya Talwar\",\"email\":\"talwar_vidya@dickinson-mayert.test\",\"gender\":\"female\",\"status\":\"active\"},{\"id\":6892530,\"name\":\"Bhadra Dhawan\",\"email\":\"bhadra_dhawan@kuphal-mertz.test\",\"gender\":\"male\",\"status\":\"active\"},{\"id\":6892529,\"name\":\"Surya Pilla VM\",\"email\":\"vm_pilla_surya@bogan.example\",\"gender\":\"male\",\"status\":\"active\"},{\"id\":6892528,\"name\":\"Abhaidev Pilla\",\"email\":\"pilla_abhaidev@hoppe.test\",\"gender\":\"male\",\"status\":\"active\"},{\"id\":6892527,\"name\":\"Chandrabhaga Arora\",\"email\":\"arora_chandrabhaga@kirlin.test\",\"gender\":\"male\",\"status\":\"active\"},{\"id\":6892526,\"name\":\"Rukmin Bharadwaj\",\"email\":\"rukmin_bharadwaj@waters.test\",\"gender\":\"female\",\"status\":\"active\"},{\"id\":6892524,\"name\":\"Deepankar Dhawan\",\"email\":\"dhawan_deepankar@ritchie-gislason.example\",\"gender\":\"female\",\"status\":\"active\"},{\"id\":6892523,\"name\":\"Kanak Asan\",\"email\":\"asan_kanak@ankunding.test\",\"gender\":\"male\",\"status\":\"active\"},{\"id\":6892522,\"name\":\"Lila Bandopadhyay\",\"email\":\"lila_bandopadhyay@kirlin.test\",\"gender\":\"female\",\"status\":\"active\"}]\n\n"},{"result":{"nanos":21200,"millis":0.0212,"status":"passed"},"step":{"line":7,"prefix":"Then","index":4,"text":"status 200"}},{"result":{"nanos":91257000,"millis":91.257,"status":"passed"},"step":{"line":8,"prefix":"*","index":5,"text":"print response"},"stepLog":"09:21:06.322 [print] [\n  {\n    \"id\": 6892536,\n    \"name\": \"Aagam Sharma\",\n    \"email\": \"sharma_aagam@oreilly.example\",\n    \"gender\": \"female\",\n    \"status\": \"active\"\n  },\n  {\n    \"id\": 6892531,\n    \"name\": \"Vidya Talwar\",\n    \"email\": \"talwar_vidya@dickinson-mayert.test\",\n    \"gender\": \"female\",\n    \"status\": \"active\"\n  },\n  {\n    \"id\": 6892530,\n    \"name\": \"Bhadra Dhawan\",\n    \"email\": \"bhadra_dhawan@kuphal-mertz.test\",\n    \"gender\": \"male\",\n    \"status\": \"active\"\n  },\n  {\n    \"id\": 6892529,\n    \"name\": \"Surya Pilla VM\",\n    \"email\": \"vm_pilla_surya@bogan.example\",\n    \"gender\": \"male\",\n    \"status\": \"active\"\n  },\n  {\n    \"id\": 6892528,\n    \"name\": \"Abhaidev Pilla\",\n    \"email\": \"pilla_abhaidev@hoppe.test\",\n    \"gender\": \"male\",\n    \"status\": \"active\"\n  },\n  {\n    \"id\": 6892527,\n    \"name\": \"Chandrabhaga Arora\",\n    \"email\": \"arora_chandrabhaga@kirlin.test\",\n    \"gender\": \"male\",\n    \"status\": \"active\"\n  },\n  {\n    \"id\": 6892526,\n    \"name\": \"Rukmin Bharadwaj\",\n    \"email\": \"rukmin_bharadwaj@waters.test\",\n    \"gender\": \"female\",\n    \"status\": \"active\"\n  },\n  {\n    \"id\": 6892524,\n    \"name\": \"Deepankar Dhawan\",\n    \"email\": \"dhawan_deepankar@ritchie-gislason.example\",\n    \"gender\": \"female\",\n    \"status\": \"active\"\n  },\n  {\n    \"id\": 6892523,\n    \"name\": \"Kanak Asan\",\n    \"email\": \"asan_kanak@ankunding.test\",\n    \"gender\": \"male\",\n    \"status\": \"active\"\n  },\n  {\n    \"id\": 6892522,\n    \"name\": \"Lila Bandopadhyay\",\n    \"email\": \"lila_bandopadhyay@kirlin.test\",\n    \"gender\": \"female\",\n    \"status\": \"active\"\n  }\n]\n \n"},{"result":{"nanos":2292400,"millis":2.2924,"status":"passed"},"step":{"line":9,"prefix":"*","index":6,"text":"print response.length"},"stepLog":"09:21:06.344 [print] 10 \n"}],"executorName":"main","line":2,"name":"user data","description":"","durationMillis":2682.8911,"startTime":1715053863532,"failed":false,"refId":"[1:2]","endTime":1715053866344,"exampleIndex":-1},{"sectionIndex":1,"stepResults":[{"result":{"nanos":808800,"millis":0.8088,"status":"passed"},"step":{"line":13,"prefix":"Given","index":0,"text":"url 'https:\/\/api.instantwebtools.net'"}},{"result":{"nanos":570200,"millis":0.5702,"status":"passed"},"step":{"line":14,"prefix":"And","index":1,"text":"path \"v1\/airlines\""}},{"result":{"nanos":390200,"millis":0.3902,"status":"passed"},"step":{"line":15,"prefix":"And","index":2,"text":"path \"13\""}},{"result":{"nanos":662300,"millis":0.6623,"status":"passed"},"step":{"line":16,"prefix":"And","index":3,"text":"header X-Request-id = \"Test123\""}},{"result":{"nanos":120960700,"errorMessage":"http call failed after 120 milliseconds for url: https:\/\/api.instantwebtools.net\/v1\/airlines\/13\nsrc\/test\/java\/features\/queryparam.feature:17","millis":120.9607,"status":"failed"},"step":{"line":17,"prefix":"When","index":4,"text":"method get"},"stepLog":"09:21:06.392 request:\n1 > GET https:\/\/api.instantwebtools.net\/v1\/airlines\/13\n1 > X-Request-id: Test123\n1 > Host: api.instantwebtools.net\n1 > Connection: Keep-Alive\n1 > User-Agent: Apache-HttpClient\/4.5.12 (Java\/17.0.10)\n1 > Accept-Encoding: gzip,deflate\n\n\n09:21:06.497 java.net.UnknownHostException: No such host is known (api.instantwebtools.net), http call failed after 120 milliseconds for url: https:\/\/api.instantwebtools.net\/v1\/airlines\/13\n09:21:06.501 src\/test\/java\/features\/queryparam.feature:17\nWhen method get\nhttp call failed after 120 milliseconds for url: https:\/\/api.instantwebtools.net\/v1\/airlines\/13\nsrc\/test\/java\/features\/queryparam.feature:17\n"},{"result":{"nanos":0,"millis":0.0,"status":"skipped"},"step":{"line":18,"prefix":"Then","index":5,"text":"status 200"}},{"result":{"nanos":0,"millis":0.0,"status":"skipped"},"step":{"line":19,"prefix":"And","index":6,"text":"match responseStatus == 200"}},{"result":{"nanos":0,"millis":0.0,"status":"skipped"},"step":{"line":20,"prefix":"And","index":7,"text":"assert responseStatus == 200"}},{"result":{"nanos":0,"millis":0.0,"status":"skipped"},"step":{"line":21,"prefix":"And","index":8,"text":"print \"response status code is as below -\" + responseStatus"}},{"result":{"nanos":0,"millis":0.0,"status":"skipped"},"step":{"line":22,"prefix":"And","index":9,"text":"print responseStatus"}},{"result":{"nanos":0,"millis":0.0,"status":"skipped"},"step":{"line":23,"prefix":"And","index":10,"text":"match response == {\"name\":\"Sri Lankan Airways\",\"id\":13, \"country\":\"Sri Lanka\",\"logo\":\"https:\/\/upload.wikimedia.org\/wikipedia\/en\/thumb\/9\/9b\/Qatar_Airways_Logo.svg\/sri_lanka.png\",\"slogan\":\"From Sri Lanka\",\"head_quaters\":\"Katunayake, Sri Lanka\",\"website\":\"www.srilankaairways.com\",\"established\":\"1990\"}"}},{"result":{"nanos":0,"millis":0.0,"status":"skipped"},"step":{"line":24,"prefix":"And","index":11,"text":"match $ == {\"name\":\"Sri Lankan Airways\",\"id\":13, \"country\":\"Sri Lanka\",\"logo\":\"https:\/\/upload.wikimedia.org\/wikipedia\/en\/thumb\/9\/9b\/Qatar_Airways_Logo.svg\/sri_lanka.png\",\"slogan\":\"From Sri Lanka\",\"head_quaters\":\"Katunayake, Sri Lanka\",\"website\":\"www.srilankaairways.com\",\"established\":\"1990\"}"}},{"result":{"nanos":0,"millis":0.0,"status":"skipped"},"step":{"line":25,"prefix":"And","index":12,"text":"match response.name == \"Sri Lankan Airways\""}},{"result":{"nanos":0,"millis":0.0,"status":"skipped"},"step":{"line":26,"prefix":"And","index":13,"text":"match $.name == \"Sri Lankan Airways\""}},{"result":{"nanos":0,"millis":0.0,"status":"skipped"},"step":{"line":27,"prefix":"And","index":14,"text":"print responseHeaders"}},{"result":{"nanos":0,"millis":0.0,"status":"skipped"},"step":{"line":28,"prefix":"And","index":15,"text":"print responseHeaders[\"Content-Type\"][0]"}},{"result":{"nanos":0,"millis":0.0,"status":"skipped"},"step":{"line":29,"prefix":"And","index":16,"text":"match header Content-Type == \"application\/json; charset=utf-8\""}},{"result":{"nanos":0,"millis":0.0,"status":"skipped"},"step":{"line":30,"prefix":"And","index":17,"text":"match header Content-Type contains \"application\/json\""}},{"result":{"nanos":0,"millis":0.0,"status":"skipped"},"step":{"line":31,"prefix":"And","index":18,"text":"match karate.response.header('Content-Type') == \"application\/json; charset=utf-8\""}}],"line":12,"description":"","durationMillis":123.3922,"failed":true,"error":"http call failed after 120 milliseconds for url: https:\/\/api.instantwebtools.net\/v1\/airlines\/13\nsrc\/test\/java\/features\/queryparam.feature:17","executorName":"main","name":"Get airline data using ID - Basic assertions","startTime":1715053866371,"refId":"[2:12]","endTime":1715053866501,"exampleIndex":-1},{"sectionIndex":2,"stepResults":[{"result":{"nanos":739200,"millis":0.7392,"status":"passed"},"step":{"line":35,"prefix":"Given","index":0,"text":"url 'https:\/\/gorest.co.in\/public\/v1\/users'"}},{"result":{"nanos":1141745700,"millis":1141.7457,"status":"passed"},"step":{"line":36,"prefix":"When","index":1,"text":"method GET"},"stepLog":"09:21:06.551 request:\n1 > GET https:\/\/gorest.co.in\/public\/v1\/users\n1 > Host: gorest.co.in\n1 > Connection: Keep-Alive\n1 > User-Agent: Apache-HttpClient\/4.5.12 (Java\/17.0.10)\n1 > Accept-Encoding: gzip,deflate\n\n\n09:21:07.689 response time in milliseconds: 1131\n1 < 200\n1 < Date: Tue, 07 May 2024 03:51:15 GMT\n1 < Content-Type: application\/json; charset=utf-8\n1 < Transfer-Encoding: chunked\n1 < Connection: keep-alive\n1 < Cache-Control: max-age=0, private, must-revalidate\n1 < etag: W\/\"21ed03a5db6698f034da720be3456e82\"\n1 < referrer-policy: strict-origin-when-cross-origin\n1 < vary: Origin\n1 < x-content-type-options: nosniff\n1 < x-download-options: noopen\n1 < x-frame-options: SAMEORIGIN\n1 < x-permitted-cross-domain-policies: none\n1 < x-request-id: bd773532-dcbc-420e-8915-744c68c10506\n1 < x-runtime: 0.045282\n1 < x-xss-protection: 0\n1 < CF-Cache-Status: DYNAMIC\n1 < Report-To: {\"endpoints\":[{\"url\":\"https:\\\/\\\/a.nel.cloudflare.com\\\/report\\\/v4?s=zubK74K5Ium%2BI5XWo3GA7OrRR2AteP2e0AzNDzqz8f3Lci%2B3SldS%2BlLmjaj1vT8%2FMp7fqBWwTrAkie8RHqCCW%2FrPdmZrdwXPaeDLTxIfihuzNZ1jam7wc52TXb1JEz8%3D\"}],\"group\":\"cf-nel\",\"max_age\":604800}\n1 < NEL: {\"success_fraction\":0,\"report_to\":\"cf-nel\",\"max_age\":604800}\n1 < Server: cloudflare\n1 < CF-RAY: 87fe401f69890189-CDG\n1 < alt-svc: h3=\":443\"; ma=86400\n{\"meta\":{\"pagination\":{\"total\":2956,\"pages\":296,\"page\":1,\"limit\":10,\"links\":{\"previous\":null,\"current\":\"https:\/\/gorest.co.in\/public\/v1\/users?page=1\",\"next\":\"https:\/\/gorest.co.in\/public\/v1\/users?page=2\"}}},\"data\":[{\"id\":6892538,\"name\":\"Atreyee Nayar\",\"email\":\"atreyee_nayar@gorczany-moen.example\",\"gender\":\"male\",\"status\":\"inactive\"},{\"id\":6892537,\"name\":\"Prof. Baala Bhattacharya\",\"email\":\"bhattacharya_baala_prof@schmitt.test\",\"gender\":\"female\",\"status\":\"inactive\"},{\"id\":6892536,\"name\":\"Aagam Sharma\",\"email\":\"sharma_aagam@oreilly.example\",\"gender\":\"female\",\"status\":\"active\"},{\"id\":6892535,\"name\":\"Dr. Aditya Abbott\",\"email\":\"abbott_aditya_dr@langosh.example\",\"gender\":\"female\",\"status\":\"inactive\"},{\"id\":6892534,\"name\":\"Vaidehi Jha\",\"email\":\"jha_vaidehi@wisoky-ferry.example\",\"gender\":\"female\",\"status\":\"inactive\"},{\"id\":6892532,\"name\":\"Pramila Menon\",\"email\":\"pramila_menon@schiller-schiller.example\",\"gender\":\"male\",\"status\":\"inactive\"},{\"id\":6892531,\"name\":\"Vidya Talwar\",\"email\":\"talwar_vidya@dickinson-mayert.test\",\"gender\":\"female\",\"status\":\"active\"},{\"id\":6892530,\"name\":\"Bhadra Dhawan\",\"email\":\"bhadra_dhawan@kuphal-mertz.test\",\"gender\":\"male\",\"status\":\"active\"},{\"id\":6892529,\"name\":\"Surya Pilla VM\",\"email\":\"vm_pilla_surya@bogan.example\",\"gender\":\"male\",\"status\":\"active\"},{\"id\":6892528,\"name\":\"Abhaidev Pilla\",\"email\":\"pilla_abhaidev@hoppe.test\",\"gender\":\"male\",\"status\":\"active\"}]}\n\n"},{"result":{"nanos":9800,"millis":0.0098,"status":"passed"},"step":{"line":37,"prefix":"Then","index":2,"text":"status 200"}},{"result":{"nanos":9163500,"millis":9.1635,"status":"passed"},"step":{"line":38,"prefix":"*","index":3,"text":"print response"},"stepLog":"09:21:07.699 [print] {\n  \"meta\": {\n    \"pagination\": {\n      \"total\": 2956,\n      \"pages\": 296,\n      \"page\": 1,\n      \"limit\": 10,\n      \"links\": {\n        \"previous\": null,\n        \"current\": \"https:\/\/gorest.co.in\/public\/v1\/users?page=1\",\n        \"next\": \"https:\/\/gorest.co.in\/public\/v1\/users?page=2\"\n      }\n    }\n  },\n  \"data\": [\n    {\n      \"id\": 6892538,\n      \"name\": \"Atreyee Nayar\",\n      \"email\": \"atreyee_nayar@gorczany-moen.example\",\n      \"gender\": \"male\",\n      \"status\": \"inactive\"\n    },\n    {\n      \"id\": 6892537,\n      \"name\": \"Prof. Baala Bhattacharya\",\n      \"email\": \"bhattacharya_baala_prof@schmitt.test\",\n      \"gender\": \"female\",\n      \"status\": \"inactive\"\n    },\n    {\n      \"id\": 6892536,\n      \"name\": \"Aagam Sharma\",\n      \"email\": \"sharma_aagam@oreilly.example\",\n      \"gender\": \"female\",\n      \"status\": \"active\"\n    },\n    {\n      \"id\": 6892535,\n      \"name\": \"Dr. Aditya Abbott\",\n      \"email\": \"abbott_aditya_dr@langosh.example\",\n      \"gender\": \"female\",\n      \"status\": \"inactive\"\n    },\n    {\n      \"id\": 6892534,\n      \"name\": \"Vaidehi Jha\",\n      \"email\": \"jha_vaidehi@wisoky-ferry.example\",\n      \"gender\": \"female\",\n      \"status\": \"inactive\"\n    },\n    {\n      \"id\": 6892532,\n      \"name\": \"Pramila Menon\",\n      \"email\": \"pramila_menon@schiller-schiller.example\",\n      \"gender\": \"male\",\n      \"status\": \"inactive\"\n    },\n    {\n      \"id\": 6892531,\n      \"name\": \"Vidya Talwar\",\n      \"email\": \"talwar_vidya@dickinson-mayert.test\",\n      \"gender\": \"female\",\n      \"status\": \"active\"\n    },\n    {\n      \"id\": 6892530,\n      \"name\": \"Bhadra Dhawan\",\n      \"email\": \"bhadra_dhawan@kuphal-mertz.test\",\n      \"gender\": \"male\",\n      \"status\": \"active\"\n    },\n    {\n      \"id\": 6892529,\n      \"name\": \"Surya Pilla VM\",\n      \"email\": \"vm_pilla_surya@bogan.example\",\n      \"gender\": \"male\",\n      \"status\": \"active\"\n    },\n    {\n      \"id\": 6892528,\n      \"name\": \"Abhaidev Pilla\",\n      \"email\": \"pilla_abhaidev@hoppe.test\",\n      \"gender\": \"male\",\n      \"status\": \"active\"\n    }\n  ]\n}\n \n"},{"result":{"nanos":526400,"millis":0.5264,"status":"passed"},"step":{"line":39,"prefix":"When","index":4,"text":"def output = []"}},{"result":{"nanos":30863900,"errorMessage":"js failed:\n>>>>\n01: for(var i=0;i<response.data.length;i++)\n<<<<\norg.graalvm.polyglot.PolyglotException: SyntaxError: Unnamed:1:39 Expected ; but found eof\r\nfor(var i=0;i<response.data.length;i++)\r\n                                       ^\n\n- org.graalvm.polyglot.Context.eval(Context.java:401)\n- com.intuit.karate.graal.JsEngine.evalForValue(JsEngine.java:141)\n- com.intuit.karate.graal.JsEngine.eval(JsEngine.java:137)\n- com.intuit.karate.core.ScenarioEngine.evalJs(ScenarioEngine.java:1344)\n- com.intuit.karate.ScenarioActions.eval(ScenarioActions.java:376)\n- java.base\/jdk.internal.reflect.NativeMethodAccessorImpl.invoke0(Native Method)\n- java.base\/jdk.internal.reflect.NativeMethodAccessorImpl.invoke(NativeMethodAccessorImpl.java:77)\n\nsrc\/test\/java\/features\/queryparam.feature:40","millis":30.8639,"status":"failed"},"step":{"line":40,"prefix":"And","index":5,"text":"eval for(var i=0;i<response.data.length;i++)"},"stepLog":"09:21:07.731 src\/test\/java\/features\/queryparam.feature:40\nAnd eval for(var i=0;i<response.data.length;i++)\njs failed:\n>>>>\n01: for(var i=0;i<response.data.length;i++)\n<<<<\norg.graalvm.polyglot.PolyglotException: SyntaxError: Unnamed:1:39 Expected ; but found eof\r\nfor(var i=0;i<response.data.length;i++)\r\n                                       ^\n\n- org.graalvm.polyglot.Context.eval(Context.java:401)\n- com.intuit.karate.graal.JsEngine.evalForValue(JsEngine.java:141)\n- com.intuit.karate.graal.JsEngine.eval(JsEngine.java:137)\n- com.intuit.karate.core.ScenarioEngine.evalJs(ScenarioEngine.java:1344)\n- com.intuit.karate.ScenarioActions.eval(ScenarioActions.java:376)\n- java.base\/jdk.internal.reflect.NativeMethodAccessorImpl.invoke0(Native Method)\n- java.base\/jdk.internal.reflect.NativeMethodAccessorImpl.invoke(NativeMethodAccessorImpl.java:77)\n\nsrc\/test\/java\/features\/queryparam.feature:40\n"},{"result":{"nanos":0,"millis":0.0,"status":"skipped"},"step":{"line":41,"prefix":"Then","index":6,"text":"print 'hello'"}}],"line":34,"description":"","durationMillis":1183.0485,"failed":true,"error":"js failed:\n>>>>\n01: for(var i=0;i<response.data.length;i++)\n<<<<\norg.graalvm.polyglot.PolyglotException: SyntaxError: Unnamed:1:39 Expected ; but found eof\r\nfor(var i=0;i<response.data.length;i++)\r\n                                       ^\n\n- org.graalvm.polyglot.Context.eval(Context.java:401)\n- com.intuit.karate.graal.JsEngine.evalForValue(JsEngine.java:141)\n- com.intuit.karate.graal.JsEngine.eval(JsEngine.java:137)\n- com.intuit.karate.core.ScenarioEngine.evalJs(ScenarioEngine.java:1344)\n- com.intuit.karate.ScenarioActions.eval(ScenarioActions.java:376)\n- java.base\/jdk.internal.reflect.NativeMethodAccessorImpl.invoke0(Native Method)\n- java.base\/jdk.internal.reflect.NativeMethodAccessorImpl.invoke(NativeMethodAccessorImpl.java:77)\n\nsrc\/test\/java\/features\/queryparam.feature:40","executorName":"main","name":"test looping","startTime":1715053866545,"refId":"[3:34]","endTime":1715053867732,"exampleIndex":-1}],"callDepth":0,"name":"API call","description":"","resultDate":"2024-05-07 09:21:07 am","durationMillis":3989.3318,"passedCount":1}