{"failedCount":1,"prefixedPath":"classpath:features\/GetCall.feature","packageQualifiedName":"features.GetCall","loopIndex":-1,"relativePath":"features\/GetCall.feature","scenarioResults":[{"sectionIndex":0,"stepResults":[{"result":{"nanos":2041900,"millis":2.0419,"status":"passed"},"step":{"line":5,"prefix":"Given","index":0,"text":"url 'https:\/\/reqres.in\/api\/users\/'"}},{"result":{"nanos":1139204600,"millis":1139.2046,"status":"passed"},"step":{"line":6,"prefix":"When","index":1,"text":"method GET"},"stepLog":"16:36:23.176 request:\n1 > GET https:\/\/reqres.in\/api\/users\/\n1 > Host: reqres.in\n1 > Connection: Keep-Alive\n1 > User-Agent: Apache-HttpClient\/4.5.12 (Java\/17.0.10)\n1 > Accept-Encoding: gzip,deflate\n\n\n16:36:23.911 response time in milliseconds: 733\n1 < 200\n1 < Date: Mon, 15 Jul 2024 11:06:24 GMT\n1 < Content-Type: application\/json; charset=utf-8\n1 < Transfer-Encoding: chunked\n1 < Connection: keep-alive\n1 < Report-To: {\"group\":\"heroku-nel\",\"max_age\":3600,\"endpoints\":[{\"url\":\"https:\/\/nel.heroku.com\/reports?ts=1721006432&sid=c4c9725f-1ab0-44d8-820f-430df2718e11&s=1F3FZ1lMYadRC3c006v49U76knz7q5UyO8HFQAD%2Bn2I%3D\"}]}\n1 < Reporting-Endpoints: heroku-nel=https:\/\/nel.heroku.com\/reports?ts=1721006432&sid=c4c9725f-1ab0-44d8-820f-430df2718e11&s=1F3FZ1lMYadRC3c006v49U76knz7q5UyO8HFQAD%2Bn2I%3D\n1 < Nel: {\"report_to\":\"heroku-nel\",\"max_age\":3600,\"success_fraction\":0.005,\"failure_fraction\":0.05,\"response_headers\":[\"Via\"]}\n1 < X-Powered-By: Express\n1 < Access-Control-Allow-Origin: *\n1 < Etag: W\/\"3e4-2RLXvr5wTg9YQ6aH95CkYoFNuO8\"\n1 < Via: 1.1 vegur\n1 < Cache-Control: max-age=14400\n1 < CF-Cache-Status: HIT\n1 < Age: 5759\n1 < Vary: Accept-Encoding\n1 < Server: cloudflare\n1 < CF-RAY: 8a39486c7dbab2d7-DEL\n{\"page\":1,\"per_page\":6,\"total\":12,\"total_pages\":2,\"data\":[{\"id\":1,\"email\":\"george.bluth@reqres.in\",\"first_name\":\"George\",\"last_name\":\"Bluth\",\"avatar\":\"https:\/\/reqres.in\/img\/faces\/1-image.jpg\"},{\"id\":2,\"email\":\"janet.weaver@reqres.in\",\"first_name\":\"Janet\",\"last_name\":\"Weaver\",\"avatar\":\"https:\/\/reqres.in\/img\/faces\/2-image.jpg\"},{\"id\":3,\"email\":\"emma.wong@reqres.in\",\"first_name\":\"Emma\",\"last_name\":\"Wong\",\"avatar\":\"https:\/\/reqres.in\/img\/faces\/3-image.jpg\"},{\"id\":4,\"email\":\"eve.holt@reqres.in\",\"first_name\":\"Eve\",\"last_name\":\"Holt\",\"avatar\":\"https:\/\/reqres.in\/img\/faces\/4-image.jpg\"},{\"id\":5,\"email\":\"charles.morris@reqres.in\",\"first_name\":\"Charles\",\"last_name\":\"Morris\",\"avatar\":\"https:\/\/reqres.in\/img\/faces\/5-image.jpg\"},{\"id\":6,\"email\":\"tracey.ramos@reqres.in\",\"first_name\":\"Tracey\",\"last_name\":\"Ramos\",\"avatar\":\"https:\/\/reqres.in\/img\/faces\/6-image.jpg\"}],\"support\":{\"url\":\"https:\/\/reqres.in\/#support-heading\",\"text\":\"To keep ReqRes free, contributions towards server costs are appreciated!\"}}\n\n"},{"result":{"nanos":62886000,"millis":62.886,"status":"passed"},"step":{"line":7,"prefix":"*","index":2,"text":"print response.data"},"stepLog":"16:36:24.008 [print] [\n  {\n    \"id\": 1,\n    \"email\": \"george.bluth@reqres.in\",\n    \"first_name\": \"George\",\n    \"last_name\": \"Bluth\",\n    \"avatar\": \"https:\/\/reqres.in\/img\/faces\/1-image.jpg\"\n  },\n  {\n    \"id\": 2,\n    \"email\": \"janet.weaver@reqres.in\",\n    \"first_name\": \"Janet\",\n    \"last_name\": \"Weaver\",\n    \"avatar\": \"https:\/\/reqres.in\/img\/faces\/2-image.jpg\"\n  },\n  {\n    \"id\": 3,\n    \"email\": \"emma.wong@reqres.in\",\n    \"first_name\": \"Emma\",\n    \"last_name\": \"Wong\",\n    \"avatar\": \"https:\/\/reqres.in\/img\/faces\/3-image.jpg\"\n  },\n  {\n    \"id\": 4,\n    \"email\": \"eve.holt@reqres.in\",\n    \"first_name\": \"Eve\",\n    \"last_name\": \"Holt\",\n    \"avatar\": \"https:\/\/reqres.in\/img\/faces\/4-image.jpg\"\n  },\n  {\n    \"id\": 5,\n    \"email\": \"charles.morris@reqres.in\",\n    \"first_name\": \"Charles\",\n    \"last_name\": \"Morris\",\n    \"avatar\": \"https:\/\/reqres.in\/img\/faces\/5-image.jpg\"\n  },\n  {\n    \"id\": 6,\n    \"email\": \"tracey.ramos@reqres.in\",\n    \"first_name\": \"Tracey\",\n    \"last_name\": \"Ramos\",\n    \"avatar\": \"https:\/\/reqres.in\/img\/faces\/6-image.jpg\"\n  }\n]\n \n"},{"result":{"nanos":22100,"millis":0.0221,"status":"passed"},"step":{"line":8,"prefix":"Then","index":3,"text":"status 200"}},{"result":{"nanos":35664600,"errorMessage":"js failed:\n>>>>\n01: karate.log('[print]',response[0].length)\n<<<<\norg.graalvm.polyglot.PolyglotException: TypeError: Cannot read property \"length\" from undefined\n- <js>.:program(Unnamed:1)\n\nclasspath:features\/GetCall.feature:11","millis":35.6646,"status":"failed"},"step":{"comments":["#Then match response == {\"data\":{\"id\":2,\"email\":\"janet.weaver@reqres.in\",\"first_name\":\"Janet\",\"last_name\":\"Weaver\",\"avatar\":\"https:\/\/reqres.in\/img\/faces\/2-image.jpg\"},\"support\":{\"url\":\"https:\/\/reqres.in\/#support-heading\",\"text\":\"To keep ReqRes free, contributions towards server costs are appreciated!\"}}","#And match response.data[0].email == 'janet.weaver@reqres.in'"],"line":11,"prefix":"*","index":4,"text":"print response[0].length"},"stepLog":"16:36:24.048 classpath:features\/GetCall.feature:11\n* print response[0].length\njs failed:\n>>>>\n01: karate.log('[print]',response[0].length)\n<<<<\norg.graalvm.polyglot.PolyglotException: TypeError: Cannot read property \"length\" from undefined\n- <js>.:program(Unnamed:1)\n\nclasspath:features\/GetCall.feature:11\n"}],"line":3,"description":"","durationMillis":1239.8192,"failed":true,"error":"js failed:\n>>>>\n01: karate.log('[print]',response[0].length)\n<<<<\norg.graalvm.polyglot.PolyglotException: TypeError: Cannot read property \"length\" from undefined\n- <js>.:program(Unnamed:1)\n\nclasspath:features\/GetCall.feature:11","executorName":"main","name":"Make a GET request and Validate status code as 200","startTime":1721041582622,"refId":"[1:3]","endTime":1721041584048,"exampleIndex":-1}],"callDepth":0,"name":"Validate Status Code for GET request","description":"","resultDate":"2024-07-15 04:36:24 pm","durationMillis":1239.8192,"passedCount":0}