{"failedCount":1,"prefixedPath":"src\/test\/java\/features\/queryparam.feature","packageQualifiedName":"src.test.java.features.queryparam","loopIndex":-1,"relativePath":"src\/test\/java\/features\/queryparam.feature","scenarioResults":[{"sectionIndex":0,"stepResults":[{"result":{"nanos":51414900,"millis":51.4149,"status":"passed"},"step":{"line":3,"prefix":"*","index":0,"text":"def query = {status:'active'}"}},{"result":{"nanos":1616900,"millis":1.6169,"status":"passed"},"step":{"line":4,"prefix":"Given","index":1,"text":"url baseUrl"}},{"result":{"nanos":5481800,"millis":5.4818,"status":"passed"},"step":{"line":5,"prefix":"And","index":2,"text":"params query"}},{"result":{"nanos":1485130300,"millis":1485.1303,"status":"passed"},"step":{"line":6,"prefix":"When","index":3,"text":"method GET"},"stepLog":"18:13:11.041 request:\n1 > GET https:\/\/gorest.co.in\/public\/v2\/users?status=active\n1 > Host: gorest.co.in\n1 > Connection: Keep-Alive\n1 > User-Agent: Apache-HttpClient\/4.5.12 (Java\/17.0.10)\n1 > Accept-Encoding: gzip,deflate\n\n\n18:13:12.136 response time in milliseconds: 1090\n1 < 200\n1 < Date: Mon, 01 Apr 2024 12:43:11 GMT\n1 < Content-Type: application\/json; charset=utf-8\n1 < Transfer-Encoding: chunked\n1 < Connection: keep-alive\n1 < Cache-Control: max-age=0, private, must-revalidate\n1 < etag: W\/\"af9b697d67a8d5cdb83918c0021aab9d\"\n1 < referrer-policy: strict-origin-when-cross-origin\n1 < vary: Origin\n1 < x-content-type-options: nosniff\n1 < x-download-options: noopen\n1 < x-frame-options: SAMEORIGIN\n1 < x-links-current: https:\/\/gorest.co.in\/public\/v2\/users?page=1\n1 < x-links-next: https:\/\/gorest.co.in\/public\/v2\/users?page=2\n1 < x-links-previous: \n1 < x-pagination-limit: 10\n1 < x-pagination-page: 1\n1 < x-pagination-pages: 139\n1 < x-pagination-total: 1388\n1 < x-permitted-cross-domain-policies: none\n1 < x-request-id: 2afbd81d-2efd-4e08-a0e1-4b9bb4cde194\n1 < x-runtime: 0.081525\n1 < x-xss-protection: 0\n1 < CF-Cache-Status: DYNAMIC\n1 < Report-To: {\"endpoints\":[{\"url\":\"https:\\\/\\\/a.nel.cloudflare.com\\\/report\\\/v4?s=FqrEbTgp3KsMUUHUL3V%2BX9r0UjY%2Fv8xXfj26vgZWxKTxKmRN%2FxOv9j91nWy0pI7xRy%2BYO4zs2CDiwOsSIrDWIy%2BNERYfvZOSyg4Nj%2F2q9FkjU0vzau8bxxRnrhnlLjg%3D\"}],\"group\":\"cf-nel\",\"max_age\":604800}\n1 < NEL: {\"success_fraction\":0,\"report_to\":\"cf-nel\",\"max_age\":604800}\n1 < Server: cloudflare\n1 < CF-RAY: 86d8a9d2dbcd2a27-CDG\n1 < alt-svc: h3=\":443\"; ma=86400\n[{\"id\":6814180,\"name\":\"Ms. Dhanapati Johar\",\"email\":\"ms_johar_dhanapati@gusikowski-gulgowski.example\",\"gender\":\"female\",\"status\":\"active\"},{\"id\":6814179,\"name\":\"Akshita Talwar\",\"email\":\"akshita_talwar@corwin.test\",\"gender\":\"female\",\"status\":\"active\"},{\"id\":6814175,\"name\":\"Shresth Mukhopadhyay DC\",\"email\":\"mukhopadhyay_dc_shresth@farrell.test\",\"gender\":\"male\",\"status\":\"active\"},{\"id\":6814165,\"name\":\"Dhanalakshmi Johar\",\"email\":\"dhanalakshmi_johar@considine.example\",\"gender\":\"female\",\"status\":\"active\"},{\"id\":6814162,\"name\":\"Nirbhay Achari\",\"email\":\"nirbhay_achari@sporer-hilll.example\",\"gender\":\"male\",\"status\":\"active\"},{\"id\":6814159,\"name\":\"Pranay Marar\",\"email\":\"marar_pranay@boyle.example\",\"gender\":\"male\",\"status\":\"active\"},{\"id\":6814156,\"name\":\"Kailash Gupta\",\"email\":\"gupta_kailash@nicolas-reilly.example\",\"gender\":\"female\",\"status\":\"active\"},{\"id\":6814151,\"name\":\"Kanti Bandopadhyay\",\"email\":\"bandopadhyay_kanti@hilll-borer.example\",\"gender\":\"male\",\"status\":\"active\"},{\"id\":6814149,\"name\":\"Trilokesh Varrier\",\"email\":\"varrier_trilokesh@wilkinson-gerlach.test\",\"gender\":\"male\",\"status\":\"active\"},{\"id\":6814148,\"name\":\"Suma Iyengar Jr.\",\"email\":\"suma_iyengar_jr@cruickshank-lesch.example\",\"gender\":\"male\",\"status\":\"active\"}]\n\n"},{"result":{"nanos":20600,"millis":0.0206,"status":"passed"},"step":{"line":7,"prefix":"Then","index":4,"text":"status 200"}},{"result":{"nanos":52130600,"millis":52.1306,"status":"passed"},"step":{"line":8,"prefix":"*","index":5,"text":"print response"},"stepLog":"18:13:12.198 [print] [\n  {\n    \"id\": 6814180,\n    \"name\": \"Ms. Dhanapati Johar\",\n    \"email\": \"ms_johar_dhanapati@gusikowski-gulgowski.example\",\n    \"gender\": \"female\",\n    \"status\": \"active\"\n  },\n  {\n    \"id\": 6814179,\n    \"name\": \"Akshita Talwar\",\n    \"email\": \"akshita_talwar@corwin.test\",\n    \"gender\": \"female\",\n    \"status\": \"active\"\n  },\n  {\n    \"id\": 6814175,\n    \"name\": \"Shresth Mukhopadhyay DC\",\n    \"email\": \"mukhopadhyay_dc_shresth@farrell.test\",\n    \"gender\": \"male\",\n    \"status\": \"active\"\n  },\n  {\n    \"id\": 6814165,\n    \"name\": \"Dhanalakshmi Johar\",\n    \"email\": \"dhanalakshmi_johar@considine.example\",\n    \"gender\": \"female\",\n    \"status\": \"active\"\n  },\n  {\n    \"id\": 6814162,\n    \"name\": \"Nirbhay Achari\",\n    \"email\": \"nirbhay_achari@sporer-hilll.example\",\n    \"gender\": \"male\",\n    \"status\": \"active\"\n  },\n  {\n    \"id\": 6814159,\n    \"name\": \"Pranay Marar\",\n    \"email\": \"marar_pranay@boyle.example\",\n    \"gender\": \"male\",\n    \"status\": \"active\"\n  },\n  {\n    \"id\": 6814156,\n    \"name\": \"Kailash Gupta\",\n    \"email\": \"gupta_kailash@nicolas-reilly.example\",\n    \"gender\": \"female\",\n    \"status\": \"active\"\n  },\n  {\n    \"id\": 6814151,\n    \"name\": \"Kanti Bandopadhyay\",\n    \"email\": \"bandopadhyay_kanti@hilll-borer.example\",\n    \"gender\": \"male\",\n    \"status\": \"active\"\n  },\n  {\n    \"id\": 6814149,\n    \"name\": \"Trilokesh Varrier\",\n    \"email\": \"varrier_trilokesh@wilkinson-gerlach.test\",\n    \"gender\": \"male\",\n    \"status\": \"active\"\n  },\n  {\n    \"id\": 6814148,\n    \"name\": \"Suma Iyengar Jr.\",\n    \"email\": \"suma_iyengar_jr@cruickshank-lesch.example\",\n    \"gender\": \"male\",\n    \"status\": \"active\"\n  }\n]\n \n"},{"result":{"nanos":740500,"millis":0.7405,"status":"passed"},"step":{"line":9,"prefix":"*","index":6,"text":"print response.length"},"stepLog":"18:13:12.199 [print] 10 \n"}],"executorName":"main","line":2,"name":"user data","description":"","durationMillis":1596.5356,"startTime":1711975390449,"failed":false,"refId":"[1:2]","endTime":1711975392199,"exampleIndex":-1},{"sectionIndex":1,"stepResults":[{"result":{"nanos":395100,"millis":0.3951,"status":"passed"},"step":{"line":12,"prefix":"Given","index":0,"text":"url 'https:\/\/gorest.co.in\/public\/v1\/users'"}},{"result":{"nanos":662757500,"millis":662.7575,"status":"passed"},"step":{"line":13,"prefix":"When","index":1,"text":"method GET"},"stepLog":"18:13:12.207 request:\n1 > GET https:\/\/gorest.co.in\/public\/v1\/users\n1 > Host: gorest.co.in\n1 > Connection: Keep-Alive\n1 > User-Agent: Apache-HttpClient\/4.5.12 (Java\/17.0.10)\n1 > Accept-Encoding: gzip,deflate\n\n\n18:13:12.867 response time in milliseconds: 659\n1 < 200\n1 < Date: Mon, 01 Apr 2024 12:43:12 GMT\n1 < Content-Type: application\/json; charset=utf-8\n1 < Transfer-Encoding: chunked\n1 < Connection: keep-alive\n1 < Cache-Control: max-age=0, private, must-revalidate\n1 < etag: W\/\"aa62bb6072f0b671d6298f08322b4679\"\n1 < referrer-policy: strict-origin-when-cross-origin\n1 < vary: Origin\n1 < x-content-type-options: nosniff\n1 < x-download-options: noopen\n1 < x-frame-options: SAMEORIGIN\n1 < x-permitted-cross-domain-policies: none\n1 < x-request-id: 7004771e-eb28-4007-b2c0-fd68b8b4f8d9\n1 < x-runtime: 0.046388\n1 < x-xss-protection: 0\n1 < CF-Cache-Status: DYNAMIC\n1 < Report-To: {\"endpoints\":[{\"url\":\"https:\\\/\\\/a.nel.cloudflare.com\\\/report\\\/v4?s=ObBD%2BFzNMWBiAdp5tmUUwMOl8CxovtUyBE%2BTbacZ18zm4WzLCsujTgYj6DShiTtWRMFujPjaQB30DMB0phL73qJ%2B0GgbRxTtogPJbHo9rJjvTAT7kHbLKwqzlJYaLHw%3D\"}],\"group\":\"cf-nel\",\"max_age\":604800}\n1 < NEL: {\"success_fraction\":0,\"report_to\":\"cf-nel\",\"max_age\":604800}\n1 < Server: cloudflare\n1 < CF-RAY: 86d8a9d7df820fe2-MRS\n1 < alt-svc: h3=\":443\"; ma=86400\n{\"meta\":{\"pagination\":{\"total\":2838,\"pages\":284,\"page\":1,\"limit\":10,\"links\":{\"previous\":null,\"current\":\"https:\/\/gorest.co.in\/public\/v1\/users?page=1\",\"next\":\"https:\/\/gorest.co.in\/public\/v1\/users?page=2\"}}},\"data\":[{\"id\":6814180,\"name\":\"Ms. Dhanapati Johar\",\"email\":\"ms_johar_dhanapati@gusikowski-gulgowski.example\",\"gender\":\"female\",\"status\":\"active\"},{\"id\":6814179,\"name\":\"Akshita Talwar\",\"email\":\"akshita_talwar@corwin.test\",\"gender\":\"female\",\"status\":\"active\"},{\"id\":6814176,\"name\":\"Miss Deeptimay Tandon\",\"email\":\"miss_deeptimay_tandon@collins.test\",\"gender\":\"male\",\"status\":\"inactive\"},{\"id\":6814175,\"name\":\"Shresth Mukhopadhyay DC\",\"email\":\"mukhopadhyay_dc_shresth@farrell.test\",\"gender\":\"male\",\"status\":\"active\"},{\"id\":6814174,\"name\":\"Sen. Mahesh Embranthiri\",\"email\":\"embranthiri_sen_mahesh@harris-wuckert.test\",\"gender\":\"male\",\"status\":\"inactive\"},{\"id\":6814173,\"name\":\"Guru Singh\",\"email\":\"guru_singh@reinger.test\",\"gender\":\"male\",\"status\":\"inactive\"},{\"id\":6814172,\"name\":\"Deeptanshu Sethi VM\",\"email\":\"sethi_deeptanshu_vm@nolan-quitzon.example\",\"gender\":\"female\",\"status\":\"inactive\"},{\"id\":6814171,\"name\":\"Bharat Gowda\",\"email\":\"bharat_gowda@rowe.test\",\"gender\":\"male\",\"status\":\"inactive\"},{\"id\":6814170,\"name\":\"Balaaditya Gowda\",\"email\":\"gowda_balaaditya@strosin.example\",\"gender\":\"male\",\"status\":\"inactive\"},{\"id\":6814169,\"name\":\"Adhiraj Guneta\",\"email\":\"adhiraj_guneta@runolfsdottir.example\",\"gender\":\"female\",\"status\":\"inactive\"}]}\n\n"},{"result":{"nanos":15600,"millis":0.0156,"status":"passed"},"step":{"line":14,"prefix":"Then","index":2,"text":"status 200"}},{"result":{"nanos":0,"errorMessage":"no step-definition method match found for: def output\nsrc\/test\/java\/features\/queryparam.feature:15","millis":0.0,"status":"failed"},"step":{"line":15,"prefix":"When","index":3,"text":"def output"},"stepLog":"18:13:12.868 src\/test\/java\/features\/queryparam.feature:15\nWhen def output\nno step-definition method match found for: def output\nsrc\/test\/java\/features\/queryparam.feature:15\n"},{"result":{"nanos":0,"millis":0.0,"status":"skipped"},"step":{"line":16,"prefix":"And","index":4,"text":"eval for(var i=0;i<response.data.length;i++) if (response.data[i].name.endsWith(\"Johar\")) output.add(response.data[i].id)"}},{"result":{"nanos":0,"millis":0.0,"status":"skipped"},"step":{"line":17,"prefix":"Then","index":5,"text":"print output"}}],"line":11,"description":"","durationMillis":663.1682,"failed":true,"error":"no step-definition method match found for: def output\nsrc\/test\/java\/features\/queryparam.feature:15","executorName":"main","name":"test looping","startTime":1711975392203,"refId":"[2:11]","endTime":1711975392868,"exampleIndex":-1}],"callDepth":0,"name":"API call","description":"","resultDate":"2024-04-01 06:13:12 pm","durationMillis":2259.7038,"passedCount":1}