{"failedCount":1,"prefixedPath":"src\/test\/java\/features\/queryparam.feature","packageQualifiedName":"src.test.java.features.queryparam","loopIndex":-1,"relativePath":"src\/test\/java\/features\/queryparam.feature","scenarioResults":[{"sectionIndex":0,"stepResults":[{"result":{"nanos":77936700,"millis":77.9367,"status":"passed"},"step":{"line":3,"prefix":"*","index":0,"text":"def query = {status:'active'}"}},{"result":{"nanos":1377500,"millis":1.3775,"status":"passed"},"step":{"line":4,"prefix":"Given","index":1,"text":"url baseUrl"}},{"result":{"nanos":7750200,"millis":7.7502,"status":"passed"},"step":{"line":5,"prefix":"And","index":2,"text":"params query"}},{"result":{"nanos":1262940300,"millis":1262.9403,"status":"passed"},"step":{"line":6,"prefix":"When","index":3,"text":"method GET"},"stepLog":"18:19:55.725 request:\n1 > GET https:\/\/gorest.co.in\/public\/v2\/users?status=active\n1 > Host: gorest.co.in\n1 > Connection: Keep-Alive\n1 > User-Agent: Apache-HttpClient\/4.5.12 (Java\/17.0.10)\n1 > Accept-Encoding: gzip,deflate\n\n\n18:19:56.662 response time in milliseconds: 934\n1 < 200\n1 < Date: Mon, 01 Apr 2024 12:49:55 GMT\n1 < Content-Type: application\/json; charset=utf-8\n1 < Transfer-Encoding: chunked\n1 < Connection: keep-alive\n1 < Cache-Control: max-age=0, private, must-revalidate\n1 < etag: W\/\"af9b697d67a8d5cdb83918c0021aab9d\"\n1 < referrer-policy: strict-origin-when-cross-origin\n1 < vary: Origin\n1 < x-content-type-options: nosniff\n1 < x-download-options: noopen\n1 < x-frame-options: SAMEORIGIN\n1 < x-links-current: https:\/\/gorest.co.in\/public\/v2\/users?page=1\n1 < x-links-next: https:\/\/gorest.co.in\/public\/v2\/users?page=2\n1 < x-links-previous: \n1 < x-pagination-limit: 10\n1 < x-pagination-page: 1\n1 < x-pagination-pages: 139\n1 < x-pagination-total: 1388\n1 < x-permitted-cross-domain-policies: none\n1 < x-request-id: 469f898c-012d-413e-a3a5-39caa7a97c63\n1 < x-runtime: 0.052843\n1 < x-xss-protection: 0\n1 < CF-Cache-Status: DYNAMIC\n1 < Report-To: {\"endpoints\":[{\"url\":\"https:\\\/\\\/a.nel.cloudflare.com\\\/report\\\/v4?s=WAffJIwZqHmXsorteNqpqxa%2BvpaWiB%2FYyrZpUGBrAlVRG5WfNnRliRh9JadLABfY%2FZ3TPQDtVpUr7Ilq1vDmCM41dbq5rby5K2Lb%2Ft%2F1%2FQbsXdMzfhYYdbddJznkRkM%3D\"}],\"group\":\"cf-nel\",\"max_age\":604800}\n1 < NEL: {\"success_fraction\":0,\"report_to\":\"cf-nel\",\"max_age\":604800}\n1 < Server: cloudflare\n1 < CF-RAY: 86d8b3b38c5bf188-CDG\n1 < alt-svc: h3=\":443\"; ma=86400\n[{\"id\":6814180,\"name\":\"Ms. Dhanapati Johar\",\"email\":\"ms_johar_dhanapati@gusikowski-gulgowski.example\",\"gender\":\"female\",\"status\":\"active\"},{\"id\":6814179,\"name\":\"Akshita Talwar\",\"email\":\"akshita_talwar@corwin.test\",\"gender\":\"female\",\"status\":\"active\"},{\"id\":6814175,\"name\":\"Shresth Mukhopadhyay DC\",\"email\":\"mukhopadhyay_dc_shresth@farrell.test\",\"gender\":\"male\",\"status\":\"active\"},{\"id\":6814165,\"name\":\"Dhanalakshmi Johar\",\"email\":\"dhanalakshmi_johar@considine.example\",\"gender\":\"female\",\"status\":\"active\"},{\"id\":6814162,\"name\":\"Nirbhay Achari\",\"email\":\"nirbhay_achari@sporer-hilll.example\",\"gender\":\"male\",\"status\":\"active\"},{\"id\":6814159,\"name\":\"Pranay Marar\",\"email\":\"marar_pranay@boyle.example\",\"gender\":\"male\",\"status\":\"active\"},{\"id\":6814156,\"name\":\"Kailash Gupta\",\"email\":\"gupta_kailash@nicolas-reilly.example\",\"gender\":\"female\",\"status\":\"active\"},{\"id\":6814151,\"name\":\"Kanti Bandopadhyay\",\"email\":\"bandopadhyay_kanti@hilll-borer.example\",\"gender\":\"male\",\"status\":\"active\"},{\"id\":6814149,\"name\":\"Trilokesh Varrier\",\"email\":\"varrier_trilokesh@wilkinson-gerlach.test\",\"gender\":\"male\",\"status\":\"active\"},{\"id\":6814148,\"name\":\"Suma Iyengar Jr.\",\"email\":\"suma_iyengar_jr@cruickshank-lesch.example\",\"gender\":\"male\",\"status\":\"active\"}]\n\n"},{"result":{"nanos":20200,"millis":0.0202,"status":"passed"},"step":{"line":7,"prefix":"Then","index":4,"text":"status 200"}},{"result":{"nanos":43126100,"millis":43.1261,"status":"passed"},"step":{"line":8,"prefix":"*","index":5,"text":"print response"},"stepLog":"18:19:56.709 [print] [\n  {\n    \"id\": 6814180,\n    \"name\": \"Ms. Dhanapati Johar\",\n    \"email\": \"ms_johar_dhanapati@gusikowski-gulgowski.example\",\n    \"gender\": \"female\",\n    \"status\": \"active\"\n  },\n  {\n    \"id\": 6814179,\n    \"name\": \"Akshita Talwar\",\n    \"email\": \"akshita_talwar@corwin.test\",\n    \"gender\": \"female\",\n    \"status\": \"active\"\n  },\n  {\n    \"id\": 6814175,\n    \"name\": \"Shresth Mukhopadhyay DC\",\n    \"email\": \"mukhopadhyay_dc_shresth@farrell.test\",\n    \"gender\": \"male\",\n    \"status\": \"active\"\n  },\n  {\n    \"id\": 6814165,\n    \"name\": \"Dhanalakshmi Johar\",\n    \"email\": \"dhanalakshmi_johar@considine.example\",\n    \"gender\": \"female\",\n    \"status\": \"active\"\n  },\n  {\n    \"id\": 6814162,\n    \"name\": \"Nirbhay Achari\",\n    \"email\": \"nirbhay_achari@sporer-hilll.example\",\n    \"gender\": \"male\",\n    \"status\": \"active\"\n  },\n  {\n    \"id\": 6814159,\n    \"name\": \"Pranay Marar\",\n    \"email\": \"marar_pranay@boyle.example\",\n    \"gender\": \"male\",\n    \"status\": \"active\"\n  },\n  {\n    \"id\": 6814156,\n    \"name\": \"Kailash Gupta\",\n    \"email\": \"gupta_kailash@nicolas-reilly.example\",\n    \"gender\": \"female\",\n    \"status\": \"active\"\n  },\n  {\n    \"id\": 6814151,\n    \"name\": \"Kanti Bandopadhyay\",\n    \"email\": \"bandopadhyay_kanti@hilll-borer.example\",\n    \"gender\": \"male\",\n    \"status\": \"active\"\n  },\n  {\n    \"id\": 6814149,\n    \"name\": \"Trilokesh Varrier\",\n    \"email\": \"varrier_trilokesh@wilkinson-gerlach.test\",\n    \"gender\": \"male\",\n    \"status\": \"active\"\n  },\n  {\n    \"id\": 6814148,\n    \"name\": \"Suma Iyengar Jr.\",\n    \"email\": \"suma_iyengar_jr@cruickshank-lesch.example\",\n    \"gender\": \"male\",\n    \"status\": \"active\"\n  }\n]\n \n"},{"result":{"nanos":1091700,"millis":1.0917,"status":"passed"},"step":{"line":9,"prefix":"*","index":6,"text":"print response.length"},"stepLog":"18:19:56.711 [print] 10 \n"}],"executorName":"main","line":2,"name":"user data","description":"","durationMillis":1394.2427,"startTime":1711975795171,"failed":false,"refId":"[1:2]","endTime":1711975796711,"exampleIndex":-1},{"sectionIndex":1,"stepResults":[{"result":{"nanos":337500,"millis":0.3375,"status":"passed"},"step":{"line":12,"prefix":"Given","index":0,"text":"url 'https:\/\/gorest.co.in\/public\/v1\/users'"}},{"result":{"nanos":735602300,"millis":735.6023,"status":"passed"},"step":{"line":13,"prefix":"When","index":1,"text":"method GET"},"stepLog":"18:19:56.718 request:\n1 > GET https:\/\/gorest.co.in\/public\/v1\/users\n1 > Host: gorest.co.in\n1 > Connection: Keep-Alive\n1 > User-Agent: Apache-HttpClient\/4.5.12 (Java\/17.0.10)\n1 > Accept-Encoding: gzip,deflate\n\n\n18:19:57.453 response time in milliseconds: 734\n1 < 200\n1 < Date: Mon, 01 Apr 2024 12:49:56 GMT\n1 < Content-Type: application\/json; charset=utf-8\n1 < Transfer-Encoding: chunked\n1 < Connection: keep-alive\n1 < Cache-Control: max-age=0, private, must-revalidate\n1 < etag: W\/\"aa62bb6072f0b671d6298f08322b4679\"\n1 < referrer-policy: strict-origin-when-cross-origin\n1 < vary: Origin\n1 < x-content-type-options: nosniff\n1 < x-download-options: noopen\n1 < x-frame-options: SAMEORIGIN\n1 < x-permitted-cross-domain-policies: none\n1 < x-request-id: 00677967-7755-48a6-959c-ae4b0282229f\n1 < x-runtime: 0.054924\n1 < x-xss-protection: 0\n1 < CF-Cache-Status: DYNAMIC\n1 < Report-To: {\"endpoints\":[{\"url\":\"https:\\\/\\\/a.nel.cloudflare.com\\\/report\\\/v4?s=D4TUVFmGYLsluB7%2F7sZJizuU%2B0meUYc%2FKoRlcnhbt8EYgW%2BpBNRQz9PjBLUAkhHSLWJb%2BCAxXQRirUMVqWp9l4h8SDKd%2BySmikkkvIv400zuAjeSO6r1nIBG7bP4elU%3D\"}],\"group\":\"cf-nel\",\"max_age\":604800}\n1 < NEL: {\"success_fraction\":0,\"report_to\":\"cf-nel\",\"max_age\":604800}\n1 < Server: cloudflare\n1 < CF-RAY: 86d8b3b85c45f160-CDG\n1 < alt-svc: h3=\":443\"; ma=86400\n{\"meta\":{\"pagination\":{\"total\":2838,\"pages\":284,\"page\":1,\"limit\":10,\"links\":{\"previous\":null,\"current\":\"https:\/\/gorest.co.in\/public\/v1\/users?page=1\",\"next\":\"https:\/\/gorest.co.in\/public\/v1\/users?page=2\"}}},\"data\":[{\"id\":6814180,\"name\":\"Ms. Dhanapati Johar\",\"email\":\"ms_johar_dhanapati@gusikowski-gulgowski.example\",\"gender\":\"female\",\"status\":\"active\"},{\"id\":6814179,\"name\":\"Akshita Talwar\",\"email\":\"akshita_talwar@corwin.test\",\"gender\":\"female\",\"status\":\"active\"},{\"id\":6814176,\"name\":\"Miss Deeptimay Tandon\",\"email\":\"miss_deeptimay_tandon@collins.test\",\"gender\":\"male\",\"status\":\"inactive\"},{\"id\":6814175,\"name\":\"Shresth Mukhopadhyay DC\",\"email\":\"mukhopadhyay_dc_shresth@farrell.test\",\"gender\":\"male\",\"status\":\"active\"},{\"id\":6814174,\"name\":\"Sen. Mahesh Embranthiri\",\"email\":\"embranthiri_sen_mahesh@harris-wuckert.test\",\"gender\":\"male\",\"status\":\"inactive\"},{\"id\":6814173,\"name\":\"Guru Singh\",\"email\":\"guru_singh@reinger.test\",\"gender\":\"male\",\"status\":\"inactive\"},{\"id\":6814172,\"name\":\"Deeptanshu Sethi VM\",\"email\":\"sethi_deeptanshu_vm@nolan-quitzon.example\",\"gender\":\"female\",\"status\":\"inactive\"},{\"id\":6814171,\"name\":\"Bharat Gowda\",\"email\":\"bharat_gowda@rowe.test\",\"gender\":\"male\",\"status\":\"inactive\"},{\"id\":6814170,\"name\":\"Balaaditya Gowda\",\"email\":\"gowda_balaaditya@strosin.example\",\"gender\":\"male\",\"status\":\"inactive\"},{\"id\":6814169,\"name\":\"Adhiraj Guneta\",\"email\":\"adhiraj_guneta@runolfsdottir.example\",\"gender\":\"female\",\"status\":\"inactive\"}]}\n\n"},{"result":{"nanos":14600,"millis":0.0146,"status":"passed"},"step":{"line":14,"prefix":"Then","index":2,"text":"status 200"}},{"result":{"nanos":1032400,"millis":1.0324,"status":"passed"},"step":{"line":15,"prefix":"*","index":3,"text":"print response"},"stepLog":"18:19:57.455 [print] {\n  \"meta\": {\n    \"pagination\": {\n      \"total\": 2838,\n      \"pages\": 284,\n      \"page\": 1,\n      \"limit\": 10,\n      \"links\": {\n        \"previous\": null,\n        \"current\": \"https:\/\/gorest.co.in\/public\/v1\/users?page=1\",\n        \"next\": \"https:\/\/gorest.co.in\/public\/v1\/users?page=2\"\n      }\n    }\n  },\n  \"data\": [\n    {\n      \"id\": 6814180,\n      \"name\": \"Ms. Dhanapati Johar\",\n      \"email\": \"ms_johar_dhanapati@gusikowski-gulgowski.example\",\n      \"gender\": \"female\",\n      \"status\": \"active\"\n    },\n    {\n      \"id\": 6814179,\n      \"name\": \"Akshita Talwar\",\n      \"email\": \"akshita_talwar@corwin.test\",\n      \"gender\": \"female\",\n      \"status\": \"active\"\n    },\n    {\n      \"id\": 6814176,\n      \"name\": \"Miss Deeptimay Tandon\",\n      \"email\": \"miss_deeptimay_tandon@collins.test\",\n      \"gender\": \"male\",\n      \"status\": \"inactive\"\n    },\n    {\n      \"id\": 6814175,\n      \"name\": \"Shresth Mukhopadhyay DC\",\n      \"email\": \"mukhopadhyay_dc_shresth@farrell.test\",\n      \"gender\": \"male\",\n      \"status\": \"active\"\n    },\n    {\n      \"id\": 6814174,\n      \"name\": \"Sen. Mahesh Embranthiri\",\n      \"email\": \"embranthiri_sen_mahesh@harris-wuckert.test\",\n      \"gender\": \"male\",\n      \"status\": \"inactive\"\n    },\n    {\n      \"id\": 6814173,\n      \"name\": \"Guru Singh\",\n      \"email\": \"guru_singh@reinger.test\",\n      \"gender\": \"male\",\n      \"status\": \"inactive\"\n    },\n    {\n      \"id\": 6814172,\n      \"name\": \"Deeptanshu Sethi VM\",\n      \"email\": \"sethi_deeptanshu_vm@nolan-quitzon.example\",\n      \"gender\": \"female\",\n      \"status\": \"inactive\"\n    },\n    {\n      \"id\": 6814171,\n      \"name\": \"Bharat Gowda\",\n      \"email\": \"bharat_gowda@rowe.test\",\n      \"gender\": \"male\",\n      \"status\": \"inactive\"\n    },\n    {\n      \"id\": 6814170,\n      \"name\": \"Balaaditya Gowda\",\n      \"email\": \"gowda_balaaditya@strosin.example\",\n      \"gender\": \"male\",\n      \"status\": \"inactive\"\n    },\n    {\n      \"id\": 6814169,\n      \"name\": \"Adhiraj Guneta\",\n      \"email\": \"adhiraj_guneta@runolfsdottir.example\",\n      \"gender\": \"female\",\n      \"status\": \"inactive\"\n    }\n  ]\n}\n \n"},{"result":{"nanos":293800,"millis":0.2938,"status":"passed"},"step":{"line":16,"prefix":"When","index":4,"text":"def output = []"}},{"result":{"nanos":37903200,"errorMessage":"js failed:\n>>>>\n01: for(var i=0;i<response.data.length;i++) if(response.data[i].name.endsWith(\"Johar\")) output.add(response.data[i].id)\n<<<<\norg.graalvm.polyglot.PolyglotException: TypeError: invokeMember (add) on [] failed due to: Message not supported.\n- <js>.:program(Unnamed:1)\n\nsrc\/test\/java\/features\/queryparam.feature:17","millis":37.9032,"status":"failed"},"step":{"line":17,"prefix":"And","index":5,"text":"eval for(var i=0;i<response.data.length;i++) if(response.data[i].name.endsWith(\"Johar\")) output.add(response.data[i].id)"},"stepLog":"18:19:57.493 src\/test\/java\/features\/queryparam.feature:17\nAnd eval for(var i=0;i<response.data.length;i++) if(response.data[i].name.endsWith(\"Johar\")) output.add(response.data[i].id)\njs failed:\n>>>>\n01: for(var i=0;i<response.data.length;i++) if(response.data[i].name.endsWith(\"Johar\")) output.add(response.data[i].id)\n<<<<\norg.graalvm.polyglot.PolyglotException: TypeError: invokeMember (add) on [] failed due to: Message not supported.\n- <js>.:program(Unnamed:1)\n\nsrc\/test\/java\/features\/queryparam.feature:17\n"},{"result":{"nanos":0,"millis":0.0,"status":"skipped"},"step":{"line":18,"prefix":"Then","index":6,"text":"print output"}}],"line":11,"description":"","durationMillis":775.1838,"failed":true,"error":"js failed:\n>>>>\n01: for(var i=0;i<response.data.length;i++) if(response.data[i].name.endsWith(\"Johar\")) output.add(response.data[i].id)\n<<<<\norg.graalvm.polyglot.PolyglotException: TypeError: invokeMember (add) on [] failed due to: Message not supported.\n- <js>.:program(Unnamed:1)\n\nsrc\/test\/java\/features\/queryparam.feature:17","executorName":"main","name":"test looping","startTime":1711975796716,"refId":"[2:11]","endTime":1711975797493,"exampleIndex":-1}],"callDepth":0,"name":"API call","description":"","resultDate":"2024-04-01 06:19:57 pm","durationMillis":2169.4265,"passedCount":1}