{"failedCount":1,"prefixedPath":"src\/test\/java\/features\/queryparam.feature","packageQualifiedName":"src.test.java.features.queryparam","loopIndex":-1,"relativePath":"src\/test\/java\/features\/queryparam.feature","scenarioResults":[{"sectionIndex":0,"stepResults":[{"result":{"nanos":63990400,"millis":63.9904,"status":"passed"},"step":{"line":3,"prefix":"*","index":0,"text":"def query = {status:'active'}"}},{"result":{"nanos":1919400,"millis":1.9194,"status":"passed"},"step":{"line":4,"prefix":"Given","index":1,"text":"url baseUrl"}},{"result":{"nanos":9630200,"millis":9.6302,"status":"passed"},"step":{"line":5,"prefix":"And","index":2,"text":"params query"}},{"result":{"nanos":1318029400,"millis":1318.0294,"status":"passed"},"step":{"line":6,"prefix":"When","index":3,"text":"method GET"},"stepLog":"18:13:50.181 request:\n1 > GET https:\/\/gorest.co.in\/public\/v2\/users?status=active\n1 > Host: gorest.co.in\n1 > Connection: Keep-Alive\n1 > User-Agent: Apache-HttpClient\/4.5.12 (Java\/17.0.10)\n1 > Accept-Encoding: gzip,deflate\n\n\n18:13:51.152 response time in milliseconds: 967\n1 < 200\n1 < Date: Mon, 01 Apr 2024 12:43:50 GMT\n1 < Content-Type: application\/json; charset=utf-8\n1 < Transfer-Encoding: chunked\n1 < Connection: keep-alive\n1 < Cache-Control: max-age=0, private, must-revalidate\n1 < etag: W\/\"af9b697d67a8d5cdb83918c0021aab9d\"\n1 < referrer-policy: strict-origin-when-cross-origin\n1 < vary: Origin\n1 < x-content-type-options: nosniff\n1 < x-download-options: noopen\n1 < x-frame-options: SAMEORIGIN\n1 < x-links-current: https:\/\/gorest.co.in\/public\/v2\/users?page=1\n1 < x-links-next: https:\/\/gorest.co.in\/public\/v2\/users?page=2\n1 < x-links-previous: \n1 < x-pagination-limit: 10\n1 < x-pagination-page: 1\n1 < x-pagination-pages: 139\n1 < x-pagination-total: 1388\n1 < x-permitted-cross-domain-policies: none\n1 < x-request-id: 08fc613a-dd06-495a-a621-f8b676a82c73\n1 < x-runtime: 0.056176\n1 < x-xss-protection: 0\n1 < CF-Cache-Status: DYNAMIC\n1 < Report-To: {\"endpoints\":[{\"url\":\"https:\\\/\\\/a.nel.cloudflare.com\\\/report\\\/v4?s=kPZ8aJZJvEAj7k7fYiJeldOCJAHVl%2F1BSB01gE8qJPh0wLsmeg8y%2B7be6Oh3m27AaiFK%2FBGtiTEN3%2FpnmUYycMBX94Nv2e0YpcRf1LP6WHFUSHtuh6hWN5d0QGtNMYI%3D\"}],\"group\":\"cf-nel\",\"max_age\":604800}\n1 < NEL: {\"success_fraction\":0,\"report_to\":\"cf-nel\",\"max_age\":604800}\n1 < Server: cloudflare\n1 < CF-RAY: 86d8aac6eb76b903-AMS\n1 < alt-svc: h3=\":443\"; ma=86400\n[{\"id\":6814180,\"name\":\"Ms. Dhanapati Johar\",\"email\":\"ms_johar_dhanapati@gusikowski-gulgowski.example\",\"gender\":\"female\",\"status\":\"active\"},{\"id\":6814179,\"name\":\"Akshita Talwar\",\"email\":\"akshita_talwar@corwin.test\",\"gender\":\"female\",\"status\":\"active\"},{\"id\":6814175,\"name\":\"Shresth Mukhopadhyay DC\",\"email\":\"mukhopadhyay_dc_shresth@farrell.test\",\"gender\":\"male\",\"status\":\"active\"},{\"id\":6814165,\"name\":\"Dhanalakshmi Johar\",\"email\":\"dhanalakshmi_johar@considine.example\",\"gender\":\"female\",\"status\":\"active\"},{\"id\":6814162,\"name\":\"Nirbhay Achari\",\"email\":\"nirbhay_achari@sporer-hilll.example\",\"gender\":\"male\",\"status\":\"active\"},{\"id\":6814159,\"name\":\"Pranay Marar\",\"email\":\"marar_pranay@boyle.example\",\"gender\":\"male\",\"status\":\"active\"},{\"id\":6814156,\"name\":\"Kailash Gupta\",\"email\":\"gupta_kailash@nicolas-reilly.example\",\"gender\":\"female\",\"status\":\"active\"},{\"id\":6814151,\"name\":\"Kanti Bandopadhyay\",\"email\":\"bandopadhyay_kanti@hilll-borer.example\",\"gender\":\"male\",\"status\":\"active\"},{\"id\":6814149,\"name\":\"Trilokesh Varrier\",\"email\":\"varrier_trilokesh@wilkinson-gerlach.test\",\"gender\":\"male\",\"status\":\"active\"},{\"id\":6814148,\"name\":\"Suma Iyengar Jr.\",\"email\":\"suma_iyengar_jr@cruickshank-lesch.example\",\"gender\":\"male\",\"status\":\"active\"}]\n\n"},{"result":{"nanos":29200,"millis":0.0292,"status":"passed"},"step":{"line":7,"prefix":"Then","index":4,"text":"status 200"}},{"result":{"nanos":49159400,"millis":49.1594,"status":"passed"},"step":{"line":8,"prefix":"*","index":5,"text":"print response"},"stepLog":"18:13:51.206 [print] [\n  {\n    \"id\": 6814180,\n    \"name\": \"Ms. Dhanapati Johar\",\n    \"email\": \"ms_johar_dhanapati@gusikowski-gulgowski.example\",\n    \"gender\": \"female\",\n    \"status\": \"active\"\n  },\n  {\n    \"id\": 6814179,\n    \"name\": \"Akshita Talwar\",\n    \"email\": \"akshita_talwar@corwin.test\",\n    \"gender\": \"female\",\n    \"status\": \"active\"\n  },\n  {\n    \"id\": 6814175,\n    \"name\": \"Shresth Mukhopadhyay DC\",\n    \"email\": \"mukhopadhyay_dc_shresth@farrell.test\",\n    \"gender\": \"male\",\n    \"status\": \"active\"\n  },\n  {\n    \"id\": 6814165,\n    \"name\": \"Dhanalakshmi Johar\",\n    \"email\": \"dhanalakshmi_johar@considine.example\",\n    \"gender\": \"female\",\n    \"status\": \"active\"\n  },\n  {\n    \"id\": 6814162,\n    \"name\": \"Nirbhay Achari\",\n    \"email\": \"nirbhay_achari@sporer-hilll.example\",\n    \"gender\": \"male\",\n    \"status\": \"active\"\n  },\n  {\n    \"id\": 6814159,\n    \"name\": \"Pranay Marar\",\n    \"email\": \"marar_pranay@boyle.example\",\n    \"gender\": \"male\",\n    \"status\": \"active\"\n  },\n  {\n    \"id\": 6814156,\n    \"name\": \"Kailash Gupta\",\n    \"email\": \"gupta_kailash@nicolas-reilly.example\",\n    \"gender\": \"female\",\n    \"status\": \"active\"\n  },\n  {\n    \"id\": 6814151,\n    \"name\": \"Kanti Bandopadhyay\",\n    \"email\": \"bandopadhyay_kanti@hilll-borer.example\",\n    \"gender\": \"male\",\n    \"status\": \"active\"\n  },\n  {\n    \"id\": 6814149,\n    \"name\": \"Trilokesh Varrier\",\n    \"email\": \"varrier_trilokesh@wilkinson-gerlach.test\",\n    \"gender\": \"male\",\n    \"status\": \"active\"\n  },\n  {\n    \"id\": 6814148,\n    \"name\": \"Suma Iyengar Jr.\",\n    \"email\": \"suma_iyengar_jr@cruickshank-lesch.example\",\n    \"gender\": \"male\",\n    \"status\": \"active\"\n  }\n]\n \n"},{"result":{"nanos":1256500,"millis":1.2565,"status":"passed"},"step":{"line":9,"prefix":"*","index":6,"text":"print response.length"},"stepLog":"18:13:51.208 [print] 10 \n"}],"executorName":"main","line":2,"name":"user data","description":"","durationMillis":1444.0145,"startTime":1711975429616,"failed":false,"refId":"[1:2]","endTime":1711975431208,"exampleIndex":-1},{"sectionIndex":1,"stepResults":[{"result":{"nanos":282900,"millis":0.2829,"status":"passed"},"step":{"line":12,"prefix":"Given","index":0,"text":"url 'https:\/\/gorest.co.in\/public\/v1\/users'"}},{"result":{"nanos":790913200,"millis":790.9132,"status":"passed"},"step":{"line":13,"prefix":"When","index":1,"text":"method GET"},"stepLog":"18:13:51.217 request:\n1 > GET https:\/\/gorest.co.in\/public\/v1\/users\n1 > Host: gorest.co.in\n1 > Connection: Keep-Alive\n1 > User-Agent: Apache-HttpClient\/4.5.12 (Java\/17.0.10)\n1 > Accept-Encoding: gzip,deflate\n\n\n18:13:52.004 response time in milliseconds: 786\n1 < 200\n1 < Date: Mon, 01 Apr 2024 12:43:51 GMT\n1 < Content-Type: application\/json; charset=utf-8\n1 < Transfer-Encoding: chunked\n1 < Connection: keep-alive\n1 < Cache-Control: max-age=0, private, must-revalidate\n1 < etag: W\/\"aa62bb6072f0b671d6298f08322b4679\"\n1 < referrer-policy: strict-origin-when-cross-origin\n1 < vary: Origin\n1 < x-content-type-options: nosniff\n1 < x-download-options: noopen\n1 < x-frame-options: SAMEORIGIN\n1 < x-permitted-cross-domain-policies: none\n1 < x-request-id: a26975b3-a47a-4246-bcc4-1fbf49a2f627\n1 < x-runtime: 0.060302\n1 < x-xss-protection: 0\n1 < CF-Cache-Status: DYNAMIC\n1 < Report-To: {\"endpoints\":[{\"url\":\"https:\\\/\\\/a.nel.cloudflare.com\\\/report\\\/v4?s=NrF0V8oD7nySFdX9zOdvZrrz%2Fo%2B831Csxn6PecLXiIWgQge3rKIJWftnbbWzinTiYx3tsQw2JECJX5H1%2Fogju%2BiNwDOdMxa8Ey76cj7r%2FBDI3FrcwE%2Fw5Obqa6XiYHI%3D\"}],\"group\":\"cf-nel\",\"max_age\":604800}\n1 < NEL: {\"success_fraction\":0,\"report_to\":\"cf-nel\",\"max_age\":604800}\n1 < Server: cloudflare\n1 < CF-RAY: 86d8aacc4a7c0207-CDG\n1 < alt-svc: h3=\":443\"; ma=86400\n{\"meta\":{\"pagination\":{\"total\":2838,\"pages\":284,\"page\":1,\"limit\":10,\"links\":{\"previous\":null,\"current\":\"https:\/\/gorest.co.in\/public\/v1\/users?page=1\",\"next\":\"https:\/\/gorest.co.in\/public\/v1\/users?page=2\"}}},\"data\":[{\"id\":6814180,\"name\":\"Ms. Dhanapati Johar\",\"email\":\"ms_johar_dhanapati@gusikowski-gulgowski.example\",\"gender\":\"female\",\"status\":\"active\"},{\"id\":6814179,\"name\":\"Akshita Talwar\",\"email\":\"akshita_talwar@corwin.test\",\"gender\":\"female\",\"status\":\"active\"},{\"id\":6814176,\"name\":\"Miss Deeptimay Tandon\",\"email\":\"miss_deeptimay_tandon@collins.test\",\"gender\":\"male\",\"status\":\"inactive\"},{\"id\":6814175,\"name\":\"Shresth Mukhopadhyay DC\",\"email\":\"mukhopadhyay_dc_shresth@farrell.test\",\"gender\":\"male\",\"status\":\"active\"},{\"id\":6814174,\"name\":\"Sen. Mahesh Embranthiri\",\"email\":\"embranthiri_sen_mahesh@harris-wuckert.test\",\"gender\":\"male\",\"status\":\"inactive\"},{\"id\":6814173,\"name\":\"Guru Singh\",\"email\":\"guru_singh@reinger.test\",\"gender\":\"male\",\"status\":\"inactive\"},{\"id\":6814172,\"name\":\"Deeptanshu Sethi VM\",\"email\":\"sethi_deeptanshu_vm@nolan-quitzon.example\",\"gender\":\"female\",\"status\":\"inactive\"},{\"id\":6814171,\"name\":\"Bharat Gowda\",\"email\":\"bharat_gowda@rowe.test\",\"gender\":\"male\",\"status\":\"inactive\"},{\"id\":6814170,\"name\":\"Balaaditya Gowda\",\"email\":\"gowda_balaaditya@strosin.example\",\"gender\":\"male\",\"status\":\"inactive\"},{\"id\":6814169,\"name\":\"Adhiraj Guneta\",\"email\":\"adhiraj_guneta@runolfsdottir.example\",\"gender\":\"female\",\"status\":\"inactive\"}]}\n\n"},{"result":{"nanos":13700,"millis":0.0137,"status":"passed"},"step":{"line":14,"prefix":"Then","index":2,"text":"status 200"}},{"result":{"nanos":484900,"millis":0.4849,"status":"passed"},"step":{"line":15,"prefix":"When","index":3,"text":"def output = []"}},{"result":{"nanos":36566100,"errorMessage":"js failed:\n>>>>\n01: for(var i=0;i<response.data.length;i++) if (response.data[i].name.endsWith(\"Johar\")) output.add(response.data[i].id)\n<<<<\norg.graalvm.polyglot.PolyglotException: TypeError: invokeMember (add) on [] failed due to: Message not supported.\n- <js>.:program(Unnamed:1)\n\nsrc\/test\/java\/features\/queryparam.feature:16","millis":36.5661,"status":"failed"},"step":{"line":16,"prefix":"And","index":4,"text":"eval for(var i=0;i<response.data.length;i++) if (response.data[i].name.endsWith(\"Johar\")) output.add(response.data[i].id)"},"stepLog":"18:13:52.044 src\/test\/java\/features\/queryparam.feature:16\nAnd eval for(var i=0;i<response.data.length;i++) if (response.data[i].name.endsWith(\"Johar\")) output.add(response.data[i].id)\njs failed:\n>>>>\n01: for(var i=0;i<response.data.length;i++) if (response.data[i].name.endsWith(\"Johar\")) output.add(response.data[i].id)\n<<<<\norg.graalvm.polyglot.PolyglotException: TypeError: invokeMember (add) on [] failed due to: Message not supported.\n- <js>.:program(Unnamed:1)\n\nsrc\/test\/java\/features\/queryparam.feature:16\n"},{"result":{"nanos":0,"millis":0.0,"status":"skipped"},"step":{"line":17,"prefix":"Then","index":5,"text":"print output"}}],"line":11,"description":"","durationMillis":828.2608,"failed":true,"error":"js failed:\n>>>>\n01: for(var i=0;i<response.data.length;i++) if (response.data[i].name.endsWith(\"Johar\")) output.add(response.data[i].id)\n<<<<\norg.graalvm.polyglot.PolyglotException: TypeError: invokeMember (add) on [] failed due to: Message not supported.\n- <js>.:program(Unnamed:1)\n\nsrc\/test\/java\/features\/queryparam.feature:16","executorName":"main","name":"test looping","startTime":1711975431215,"refId":"[2:11]","endTime":1711975432044,"exampleIndex":-1}],"callDepth":0,"name":"API call","description":"","resultDate":"2024-04-01 06:13:52 pm","durationMillis":2272.2753,"passedCount":1}