{"failedCount":1,"prefixedPath":"src\/test\/java\/features\/queryparam.feature","packageQualifiedName":"src.test.java.features.queryparam","loopIndex":-1,"relativePath":"src\/test\/java\/features\/queryparam.feature","scenarioResults":[{"sectionIndex":0,"stepResults":[{"result":{"nanos":66235100,"millis":66.2351,"status":"passed"},"step":{"line":3,"prefix":"*","index":0,"text":"def query = {status:'active'}"}},{"result":{"nanos":1775400,"millis":1.7754,"status":"passed"},"step":{"line":4,"prefix":"Given","index":1,"text":"url baseUrl"}},{"result":{"nanos":7984500,"millis":7.9845,"status":"passed"},"step":{"line":5,"prefix":"And","index":2,"text":"params query"}},{"result":{"nanos":1254402000,"millis":1254.402,"status":"passed"},"step":{"line":6,"prefix":"When","index":3,"text":"method GET"},"stepLog":"18:20:41.356 request:\n1 > GET https:\/\/gorest.co.in\/public\/v2\/users?status=active\n1 > Host: gorest.co.in\n1 > Connection: Keep-Alive\n1 > User-Agent: Apache-HttpClient\/4.5.12 (Java\/17.0.10)\n1 > Accept-Encoding: gzip,deflate\n\n\n18:20:42.237 response time in milliseconds: 878\n1 < 200\n1 < Date: Mon, 01 Apr 2024 12:50:41 GMT\n1 < Content-Type: application\/json; charset=utf-8\n1 < Transfer-Encoding: chunked\n1 < Connection: keep-alive\n1 < Cache-Control: max-age=0, private, must-revalidate\n1 < etag: W\/\"af9b697d67a8d5cdb83918c0021aab9d\"\n1 < referrer-policy: strict-origin-when-cross-origin\n1 < vary: Origin\n1 < x-content-type-options: nosniff\n1 < x-download-options: noopen\n1 < x-frame-options: SAMEORIGIN\n1 < x-links-current: https:\/\/gorest.co.in\/public\/v2\/users?page=1\n1 < x-links-next: https:\/\/gorest.co.in\/public\/v2\/users?page=2\n1 < x-links-previous: \n1 < x-pagination-limit: 10\n1 < x-pagination-page: 1\n1 < x-pagination-pages: 139\n1 < x-pagination-total: 1388\n1 < x-permitted-cross-domain-policies: none\n1 < x-request-id: b8bf6fb6-730f-4043-a0b1-37ad9001c6d0\n1 < x-runtime: 0.036288\n1 < x-xss-protection: 0\n1 < CF-Cache-Status: DYNAMIC\n1 < Report-To: {\"endpoints\":[{\"url\":\"https:\\\/\\\/a.nel.cloudflare.com\\\/report\\\/v4?s=XzEhkjH%2Bwx2Bu73f6MyZAjvKHnBpSwlQ54PIpxX4NfHizUEQhmSLDkDN82KgEPpWGE6ILvUm9hj8yaQjCI9lP1Kx7LWqWeFyBloezI%2F0TpGh9xIfJ3iUc0hEaHuG420%3D\"}],\"group\":\"cf-nel\",\"max_age\":604800}\n1 < NEL: {\"success_fraction\":0,\"report_to\":\"cf-nel\",\"max_age\":604800}\n1 < Server: cloudflare\n1 < CF-RAY: 86d8b4d06c4412ae-MRS\n1 < alt-svc: h3=\":443\"; ma=86400\n[{\"id\":6814180,\"name\":\"Ms. Dhanapati Johar\",\"email\":\"ms_johar_dhanapati@gusikowski-gulgowski.example\",\"gender\":\"female\",\"status\":\"active\"},{\"id\":6814179,\"name\":\"Akshita Talwar\",\"email\":\"akshita_talwar@corwin.test\",\"gender\":\"female\",\"status\":\"active\"},{\"id\":6814175,\"name\":\"Shresth Mukhopadhyay DC\",\"email\":\"mukhopadhyay_dc_shresth@farrell.test\",\"gender\":\"male\",\"status\":\"active\"},{\"id\":6814165,\"name\":\"Dhanalakshmi Johar\",\"email\":\"dhanalakshmi_johar@considine.example\",\"gender\":\"female\",\"status\":\"active\"},{\"id\":6814162,\"name\":\"Nirbhay Achari\",\"email\":\"nirbhay_achari@sporer-hilll.example\",\"gender\":\"male\",\"status\":\"active\"},{\"id\":6814159,\"name\":\"Pranay Marar\",\"email\":\"marar_pranay@boyle.example\",\"gender\":\"male\",\"status\":\"active\"},{\"id\":6814156,\"name\":\"Kailash Gupta\",\"email\":\"gupta_kailash@nicolas-reilly.example\",\"gender\":\"female\",\"status\":\"active\"},{\"id\":6814151,\"name\":\"Kanti Bandopadhyay\",\"email\":\"bandopadhyay_kanti@hilll-borer.example\",\"gender\":\"male\",\"status\":\"active\"},{\"id\":6814149,\"name\":\"Trilokesh Varrier\",\"email\":\"varrier_trilokesh@wilkinson-gerlach.test\",\"gender\":\"male\",\"status\":\"active\"},{\"id\":6814148,\"name\":\"Suma Iyengar Jr.\",\"email\":\"suma_iyengar_jr@cruickshank-lesch.example\",\"gender\":\"male\",\"status\":\"active\"}]\n\n"},{"result":{"nanos":20000,"millis":0.02,"status":"passed"},"step":{"line":7,"prefix":"Then","index":4,"text":"status 200"}},{"result":{"nanos":44674700,"millis":44.6747,"status":"passed"},"step":{"line":8,"prefix":"*","index":5,"text":"print response"},"stepLog":"18:20:42.286 [print] [\n  {\n    \"id\": 6814180,\n    \"name\": \"Ms. Dhanapati Johar\",\n    \"email\": \"ms_johar_dhanapati@gusikowski-gulgowski.example\",\n    \"gender\": \"female\",\n    \"status\": \"active\"\n  },\n  {\n    \"id\": 6814179,\n    \"name\": \"Akshita Talwar\",\n    \"email\": \"akshita_talwar@corwin.test\",\n    \"gender\": \"female\",\n    \"status\": \"active\"\n  },\n  {\n    \"id\": 6814175,\n    \"name\": \"Shresth Mukhopadhyay DC\",\n    \"email\": \"mukhopadhyay_dc_shresth@farrell.test\",\n    \"gender\": \"male\",\n    \"status\": \"active\"\n  },\n  {\n    \"id\": 6814165,\n    \"name\": \"Dhanalakshmi Johar\",\n    \"email\": \"dhanalakshmi_johar@considine.example\",\n    \"gender\": \"female\",\n    \"status\": \"active\"\n  },\n  {\n    \"id\": 6814162,\n    \"name\": \"Nirbhay Achari\",\n    \"email\": \"nirbhay_achari@sporer-hilll.example\",\n    \"gender\": \"male\",\n    \"status\": \"active\"\n  },\n  {\n    \"id\": 6814159,\n    \"name\": \"Pranay Marar\",\n    \"email\": \"marar_pranay@boyle.example\",\n    \"gender\": \"male\",\n    \"status\": \"active\"\n  },\n  {\n    \"id\": 6814156,\n    \"name\": \"Kailash Gupta\",\n    \"email\": \"gupta_kailash@nicolas-reilly.example\",\n    \"gender\": \"female\",\n    \"status\": \"active\"\n  },\n  {\n    \"id\": 6814151,\n    \"name\": \"Kanti Bandopadhyay\",\n    \"email\": \"bandopadhyay_kanti@hilll-borer.example\",\n    \"gender\": \"male\",\n    \"status\": \"active\"\n  },\n  {\n    \"id\": 6814149,\n    \"name\": \"Trilokesh Varrier\",\n    \"email\": \"varrier_trilokesh@wilkinson-gerlach.test\",\n    \"gender\": \"male\",\n    \"status\": \"active\"\n  },\n  {\n    \"id\": 6814148,\n    \"name\": \"Suma Iyengar Jr.\",\n    \"email\": \"suma_iyengar_jr@cruickshank-lesch.example\",\n    \"gender\": \"male\",\n    \"status\": \"active\"\n  }\n]\n \n"},{"result":{"nanos":2221900,"millis":2.2219,"status":"passed"},"step":{"line":9,"prefix":"*","index":6,"text":"print response.length"},"stepLog":"18:20:42.289 [print] 10 \n"}],"executorName":"main","line":2,"name":"user data","description":"","durationMillis":1377.3136,"startTime":1711975840791,"failed":false,"refId":"[1:2]","endTime":1711975842289,"exampleIndex":-1},{"sectionIndex":1,"stepResults":[{"result":{"nanos":357600,"millis":0.3576,"status":"passed"},"step":{"line":12,"prefix":"Given","index":0,"text":"url 'https:\/\/gorest.co.in\/public\/v1\/users'"}},{"result":{"nanos":1111873000,"millis":1111.873,"status":"passed"},"step":{"line":13,"prefix":"When","index":1,"text":"method GET"},"stepLog":"18:20:42.296 request:\n1 > GET https:\/\/gorest.co.in\/public\/v1\/users\n1 > Host: gorest.co.in\n1 > Connection: Keep-Alive\n1 > User-Agent: Apache-HttpClient\/4.5.12 (Java\/17.0.10)\n1 > Accept-Encoding: gzip,deflate\n\n\n18:20:43.405 response time in milliseconds: 1109\n1 < 200\n1 < Date: Mon, 01 Apr 2024 12:50:42 GMT\n1 < Content-Type: application\/json; charset=utf-8\n1 < Transfer-Encoding: chunked\n1 < Connection: keep-alive\n1 < Cache-Control: max-age=0, private, must-revalidate\n1 < etag: W\/\"aa62bb6072f0b671d6298f08322b4679\"\n1 < referrer-policy: strict-origin-when-cross-origin\n1 < vary: Origin\n1 < x-content-type-options: nosniff\n1 < x-download-options: noopen\n1 < x-frame-options: SAMEORIGIN\n1 < x-permitted-cross-domain-policies: none\n1 < x-request-id: cfd0e13f-f4bf-4d8a-b5b5-60ab18e48968\n1 < x-runtime: 0.062420\n1 < x-xss-protection: 0\n1 < CF-Cache-Status: DYNAMIC\n1 < Report-To: {\"endpoints\":[{\"url\":\"https:\\\/\\\/a.nel.cloudflare.com\\\/report\\\/v4?s=c777PG0%2B3yUPIoN7ihVU0t1imgOvHolGK%2BR%2Fq81OgYNj0ADUVTsojw2HthiCiUGQeMzIfJ5nqqLKB49sxSMZpSizbXIi2rnb01ksD3gOeUp2EAP3Ue%2FKjR9g7iucJYo%3D\"}],\"group\":\"cf-nel\",\"max_age\":604800}\n1 < NEL: {\"success_fraction\":0,\"report_to\":\"cf-nel\",\"max_age\":604800}\n1 < Server: cloudflare\n1 < CF-RAY: 86d8b4d5797d0e70-AMS\n1 < alt-svc: h3=\":443\"; ma=86400\n{\"meta\":{\"pagination\":{\"total\":2838,\"pages\":284,\"page\":1,\"limit\":10,\"links\":{\"previous\":null,\"current\":\"https:\/\/gorest.co.in\/public\/v1\/users?page=1\",\"next\":\"https:\/\/gorest.co.in\/public\/v1\/users?page=2\"}}},\"data\":[{\"id\":6814180,\"name\":\"Ms. Dhanapati Johar\",\"email\":\"ms_johar_dhanapati@gusikowski-gulgowski.example\",\"gender\":\"female\",\"status\":\"active\"},{\"id\":6814179,\"name\":\"Akshita Talwar\",\"email\":\"akshita_talwar@corwin.test\",\"gender\":\"female\",\"status\":\"active\"},{\"id\":6814176,\"name\":\"Miss Deeptimay Tandon\",\"email\":\"miss_deeptimay_tandon@collins.test\",\"gender\":\"male\",\"status\":\"inactive\"},{\"id\":6814175,\"name\":\"Shresth Mukhopadhyay DC\",\"email\":\"mukhopadhyay_dc_shresth@farrell.test\",\"gender\":\"male\",\"status\":\"active\"},{\"id\":6814174,\"name\":\"Sen. Mahesh Embranthiri\",\"email\":\"embranthiri_sen_mahesh@harris-wuckert.test\",\"gender\":\"male\",\"status\":\"inactive\"},{\"id\":6814173,\"name\":\"Guru Singh\",\"email\":\"guru_singh@reinger.test\",\"gender\":\"male\",\"status\":\"inactive\"},{\"id\":6814172,\"name\":\"Deeptanshu Sethi VM\",\"email\":\"sethi_deeptanshu_vm@nolan-quitzon.example\",\"gender\":\"female\",\"status\":\"inactive\"},{\"id\":6814171,\"name\":\"Bharat Gowda\",\"email\":\"bharat_gowda@rowe.test\",\"gender\":\"male\",\"status\":\"inactive\"},{\"id\":6814170,\"name\":\"Balaaditya Gowda\",\"email\":\"gowda_balaaditya@strosin.example\",\"gender\":\"male\",\"status\":\"inactive\"},{\"id\":6814169,\"name\":\"Adhiraj Guneta\",\"email\":\"adhiraj_guneta@runolfsdottir.example\",\"gender\":\"female\",\"status\":\"inactive\"}]}\n\n"},{"result":{"nanos":12300,"millis":0.0123,"status":"passed"},"step":{"line":14,"prefix":"Then","index":2,"text":"status 200"}},{"result":{"nanos":904400,"millis":0.9044,"status":"passed"},"step":{"line":15,"prefix":"*","index":3,"text":"print response"},"stepLog":"18:20:43.408 [print] {\n  \"meta\": {\n    \"pagination\": {\n      \"total\": 2838,\n      \"pages\": 284,\n      \"page\": 1,\n      \"limit\": 10,\n      \"links\": {\n        \"previous\": null,\n        \"current\": \"https:\/\/gorest.co.in\/public\/v1\/users?page=1\",\n        \"next\": \"https:\/\/gorest.co.in\/public\/v1\/users?page=2\"\n      }\n    }\n  },\n  \"data\": [\n    {\n      \"id\": 6814180,\n      \"name\": \"Ms. Dhanapati Johar\",\n      \"email\": \"ms_johar_dhanapati@gusikowski-gulgowski.example\",\n      \"gender\": \"female\",\n      \"status\": \"active\"\n    },\n    {\n      \"id\": 6814179,\n      \"name\": \"Akshita Talwar\",\n      \"email\": \"akshita_talwar@corwin.test\",\n      \"gender\": \"female\",\n      \"status\": \"active\"\n    },\n    {\n      \"id\": 6814176,\n      \"name\": \"Miss Deeptimay Tandon\",\n      \"email\": \"miss_deeptimay_tandon@collins.test\",\n      \"gender\": \"male\",\n      \"status\": \"inactive\"\n    },\n    {\n      \"id\": 6814175,\n      \"name\": \"Shresth Mukhopadhyay DC\",\n      \"email\": \"mukhopadhyay_dc_shresth@farrell.test\",\n      \"gender\": \"male\",\n      \"status\": \"active\"\n    },\n    {\n      \"id\": 6814174,\n      \"name\": \"Sen. Mahesh Embranthiri\",\n      \"email\": \"embranthiri_sen_mahesh@harris-wuckert.test\",\n      \"gender\": \"male\",\n      \"status\": \"inactive\"\n    },\n    {\n      \"id\": 6814173,\n      \"name\": \"Guru Singh\",\n      \"email\": \"guru_singh@reinger.test\",\n      \"gender\": \"male\",\n      \"status\": \"inactive\"\n    },\n    {\n      \"id\": 6814172,\n      \"name\": \"Deeptanshu Sethi VM\",\n      \"email\": \"sethi_deeptanshu_vm@nolan-quitzon.example\",\n      \"gender\": \"female\",\n      \"status\": \"inactive\"\n    },\n    {\n      \"id\": 6814171,\n      \"name\": \"Bharat Gowda\",\n      \"email\": \"bharat_gowda@rowe.test\",\n      \"gender\": \"male\",\n      \"status\": \"inactive\"\n    },\n    {\n      \"id\": 6814170,\n      \"name\": \"Balaaditya Gowda\",\n      \"email\": \"gowda_balaaditya@strosin.example\",\n      \"gender\": \"male\",\n      \"status\": \"inactive\"\n    },\n    {\n      \"id\": 6814169,\n      \"name\": \"Adhiraj Guneta\",\n      \"email\": \"adhiraj_guneta@runolfsdottir.example\",\n      \"gender\": \"female\",\n      \"status\": \"inactive\"\n    }\n  ]\n}\n \n"},{"result":{"nanos":279600,"millis":0.2796,"status":"passed"},"step":{"line":16,"prefix":"When","index":4,"text":"def output = []"}},{"result":{"nanos":24297600,"errorMessage":"js failed:\n>>>>\n01: for(var i=0;i<response.data.length;i++)\n<<<<\norg.graalvm.polyglot.PolyglotException: SyntaxError: Unnamed:1:39 Expected ; but found eof\r\nfor(var i=0;i<response.data.length;i++)\r\n                                       ^\n\n- org.graalvm.polyglot.Context.eval(Context.java:401)\n- com.intuit.karate.graal.JsEngine.evalForValue(JsEngine.java:141)\n- com.intuit.karate.graal.JsEngine.eval(JsEngine.java:137)\n- com.intuit.karate.core.ScenarioEngine.evalJs(ScenarioEngine.java:1344)\n- com.intuit.karate.ScenarioActions.eval(ScenarioActions.java:376)\n- java.base\/jdk.internal.reflect.NativeMethodAccessorImpl.invoke0(Native Method)\n- java.base\/jdk.internal.reflect.NativeMethodAccessorImpl.invoke(NativeMethodAccessorImpl.java:77)\n\nsrc\/test\/java\/features\/queryparam.feature:17","millis":24.2976,"status":"failed"},"step":{"line":17,"prefix":"And","index":5,"text":"eval for(var i=0;i<response.data.length;i++)"},"stepLog":"18:20:43.434 src\/test\/java\/features\/queryparam.feature:17\nAnd eval for(var i=0;i<response.data.length;i++)\njs failed:\n>>>>\n01: for(var i=0;i<response.data.length;i++)\n<<<<\norg.graalvm.polyglot.PolyglotException: SyntaxError: Unnamed:1:39 Expected ; but found eof\r\nfor(var i=0;i<response.data.length;i++)\r\n                                       ^\n\n- org.graalvm.polyglot.Context.eval(Context.java:401)\n- com.intuit.karate.graal.JsEngine.evalForValue(JsEngine.java:141)\n- com.intuit.karate.graal.JsEngine.eval(JsEngine.java:137)\n- com.intuit.karate.core.ScenarioEngine.evalJs(ScenarioEngine.java:1344)\n- com.intuit.karate.ScenarioActions.eval(ScenarioActions.java:376)\n- java.base\/jdk.internal.reflect.NativeMethodAccessorImpl.invoke0(Native Method)\n- java.base\/jdk.internal.reflect.NativeMethodAccessorImpl.invoke(NativeMethodAccessorImpl.java:77)\n\nsrc\/test\/java\/features\/queryparam.feature:17\n"},{"result":{"nanos":0,"millis":0.0,"status":"skipped"},"step":{"line":18,"prefix":"Then","index":6,"text":"print 'hello'"}}],"line":11,"description":"","durationMillis":1137.7245,"failed":true,"error":"js failed:\n>>>>\n01: for(var i=0;i<response.data.length;i++)\n<<<<\norg.graalvm.polyglot.PolyglotException: SyntaxError: Unnamed:1:39 Expected ; but found eof\r\nfor(var i=0;i<response.data.length;i++)\r\n                                       ^\n\n- org.graalvm.polyglot.Context.eval(Context.java:401)\n- com.intuit.karate.graal.JsEngine.evalForValue(JsEngine.java:141)\n- com.intuit.karate.graal.JsEngine.eval(JsEngine.java:137)\n- com.intuit.karate.core.ScenarioEngine.evalJs(ScenarioEngine.java:1344)\n- com.intuit.karate.ScenarioActions.eval(ScenarioActions.java:376)\n- java.base\/jdk.internal.reflect.NativeMethodAccessorImpl.invoke0(Native Method)\n- java.base\/jdk.internal.reflect.NativeMethodAccessorImpl.invoke(NativeMethodAccessorImpl.java:77)\n\nsrc\/test\/java\/features\/queryparam.feature:17","executorName":"main","name":"test looping","startTime":1711975842294,"refId":"[2:11]","endTime":1711975843434,"exampleIndex":-1}],"callDepth":0,"name":"API call","description":"","resultDate":"2024-04-01 06:20:43 pm","durationMillis":2515.0381,"passedCount":1}