{"failedCount":0,"prefixedPath":"classpath:features\/GetCall.feature","packageQualifiedName":"features.GetCall","loopIndex":-1,"relativePath":"features\/GetCall.feature","scenarioResults":[{"sectionIndex":0,"stepResults":[{"result":{"nanos":1656400,"millis":1.6564,"status":"passed"},"step":{"line":5,"prefix":"Given","index":0,"text":"url 'https:\/\/reqres.in\/api\/users\/'"}},{"result":{"nanos":1122189200,"millis":1122.1892,"status":"passed"},"step":{"line":6,"prefix":"When","index":1,"text":"method GET"},"stepLog":"16:44:51.360 request:\n1 > GET https:\/\/reqres.in\/api\/users\/\n1 > Host: reqres.in\n1 > Connection: Keep-Alive\n1 > User-Agent: Apache-HttpClient\/4.5.12 (Java\/17.0.10)\n1 > Accept-Encoding: gzip,deflate\n\n\n16:44:52.055 response time in milliseconds: 690\n1 < 200\n1 < Date: Mon, 15 Jul 2024 11:14:52 GMT\n1 < Content-Type: application\/json; charset=utf-8\n1 < Transfer-Encoding: chunked\n1 < Connection: keep-alive\n1 < Report-To: {\"group\":\"heroku-nel\",\"max_age\":3600,\"endpoints\":[{\"url\":\"https:\/\/nel.heroku.com\/reports?ts=1721006432&sid=c4c9725f-1ab0-44d8-820f-430df2718e11&s=1F3FZ1lMYadRC3c006v49U76knz7q5UyO8HFQAD%2Bn2I%3D\"}]}\n1 < Reporting-Endpoints: heroku-nel=https:\/\/nel.heroku.com\/reports?ts=1721006432&sid=c4c9725f-1ab0-44d8-820f-430df2718e11&s=1F3FZ1lMYadRC3c006v49U76knz7q5UyO8HFQAD%2Bn2I%3D\n1 < Nel: {\"report_to\":\"heroku-nel\",\"max_age\":3600,\"success_fraction\":0.005,\"failure_fraction\":0.05,\"response_headers\":[\"Via\"]}\n1 < X-Powered-By: Express\n1 < Access-Control-Allow-Origin: *\n1 < Etag: W\/\"3e4-2RLXvr5wTg9YQ6aH95CkYoFNuO8\"\n1 < Via: 1.1 vegur\n1 < Cache-Control: max-age=14400\n1 < CF-Cache-Status: HIT\n1 < Age: 6267\n1 < Vary: Accept-Encoding\n1 < Server: cloudflare\n1 < CF-RAY: 8a3954d46a25a7f7-DEL\n{\"page\":1,\"per_page\":6,\"total\":12,\"total_pages\":2,\"data\":[{\"id\":1,\"email\":\"george.bluth@reqres.in\",\"first_name\":\"George\",\"last_name\":\"Bluth\",\"avatar\":\"https:\/\/reqres.in\/img\/faces\/1-image.jpg\"},{\"id\":2,\"email\":\"janet.weaver@reqres.in\",\"first_name\":\"Janet\",\"last_name\":\"Weaver\",\"avatar\":\"https:\/\/reqres.in\/img\/faces\/2-image.jpg\"},{\"id\":3,\"email\":\"emma.wong@reqres.in\",\"first_name\":\"Emma\",\"last_name\":\"Wong\",\"avatar\":\"https:\/\/reqres.in\/img\/faces\/3-image.jpg\"},{\"id\":4,\"email\":\"eve.holt@reqres.in\",\"first_name\":\"Eve\",\"last_name\":\"Holt\",\"avatar\":\"https:\/\/reqres.in\/img\/faces\/4-image.jpg\"},{\"id\":5,\"email\":\"charles.morris@reqres.in\",\"first_name\":\"Charles\",\"last_name\":\"Morris\",\"avatar\":\"https:\/\/reqres.in\/img\/faces\/5-image.jpg\"},{\"id\":6,\"email\":\"tracey.ramos@reqres.in\",\"first_name\":\"Tracey\",\"last_name\":\"Ramos\",\"avatar\":\"https:\/\/reqres.in\/img\/faces\/6-image.jpg\"}],\"support\":{\"url\":\"https:\/\/reqres.in\/#support-heading\",\"text\":\"To keep ReqRes free, contributions towards server costs are appreciated!\"}}\n\n"},{"result":{"nanos":67556400,"millis":67.5564,"status":"passed"},"step":{"line":7,"prefix":"*","index":2,"text":"print response.data"},"stepLog":"16:44:52.165 [print] [\n  {\n    \"id\": 1,\n    \"email\": \"george.bluth@reqres.in\",\n    \"first_name\": \"George\",\n    \"last_name\": \"Bluth\",\n    \"avatar\": \"https:\/\/reqres.in\/img\/faces\/1-image.jpg\"\n  },\n  {\n    \"id\": 2,\n    \"email\": \"janet.weaver@reqres.in\",\n    \"first_name\": \"Janet\",\n    \"last_name\": \"Weaver\",\n    \"avatar\": \"https:\/\/reqres.in\/img\/faces\/2-image.jpg\"\n  },\n  {\n    \"id\": 3,\n    \"email\": \"emma.wong@reqres.in\",\n    \"first_name\": \"Emma\",\n    \"last_name\": \"Wong\",\n    \"avatar\": \"https:\/\/reqres.in\/img\/faces\/3-image.jpg\"\n  },\n  {\n    \"id\": 4,\n    \"email\": \"eve.holt@reqres.in\",\n    \"first_name\": \"Eve\",\n    \"last_name\": \"Holt\",\n    \"avatar\": \"https:\/\/reqres.in\/img\/faces\/4-image.jpg\"\n  },\n  {\n    \"id\": 5,\n    \"email\": \"charles.morris@reqres.in\",\n    \"first_name\": \"Charles\",\n    \"last_name\": \"Morris\",\n    \"avatar\": \"https:\/\/reqres.in\/img\/faces\/5-image.jpg\"\n  },\n  {\n    \"id\": 6,\n    \"email\": \"tracey.ramos@reqres.in\",\n    \"first_name\": \"Tracey\",\n    \"last_name\": \"Ramos\",\n    \"avatar\": \"https:\/\/reqres.in\/img\/faces\/6-image.jpg\"\n  }\n]\n \n"},{"result":{"nanos":26900,"millis":0.0269,"status":"passed"},"step":{"line":8,"prefix":"Then","index":3,"text":"status 200"}},{"result":{"nanos":1826200,"millis":1.8262,"status":"passed"},"step":{"comments":["#Then match response == {\"data\":{\"id\":2,\"email\":\"janet.weaver@reqres.in\",\"first_name\":\"Janet\",\"last_name\":\"Weaver\",\"avatar\":\"https:\/\/reqres.in\/img\/faces\/2-image.jpg\"},\"support\":{\"url\":\"https:\/\/reqres.in\/#support-heading\",\"text\":\"To keep ReqRes free, contributions towards server costs are appreciated!\"}}","#And match response.data[0].email == 'janet.weaver@reqres.in'"],"line":11,"prefix":"*","index":4,"text":"print response.data.length"},"stepLog":"16:44:52.170 [print] 6 \n"}],"executorName":"main","line":3,"name":"Make a GET request and Validate status code as 200","description":"","durationMillis":1193.2551,"startTime":1721042090833,"failed":false,"refId":"[1:3]","endTime":1721042092170,"exampleIndex":-1}],"callDepth":0,"name":"Validate Status Code for GET request","description":"","resultDate":"2024-07-15 04:44:52 pm","durationMillis":1193.2551,"passedCount":1}