{"failedCount":2,"prefixedPath":"src\/test\/java\/features\/queryparam.feature","packageQualifiedName":"src.test.java.features.queryparam","loopIndex":-1,"relativePath":"src\/test\/java\/features\/queryparam.feature","scenarioResults":[{"sectionIndex":0,"stepResults":[{"result":{"nanos":69512600,"millis":69.5126,"status":"passed"},"step":{"line":3,"prefix":"*","index":0,"text":"def query = {status:'active'}"}},{"result":{"nanos":2305800,"millis":2.3058,"status":"passed"},"step":{"line":4,"prefix":"Given","index":1,"text":"url baseUrl"}},{"result":{"nanos":8148300,"millis":8.1483,"status":"passed"},"step":{"line":5,"prefix":"And","index":2,"text":"params query"}},{"result":{"nanos":1420642600,"millis":1420.6426,"status":"passed"},"step":{"line":6,"prefix":"When","index":3,"text":"method GET"},"stepLog":"18:28:42.833 request:\n1 > GET https:\/\/gorest.co.in\/public\/v2\/users?status=active\n1 > Host: gorest.co.in\n1 > Connection: Keep-Alive\n1 > User-Agent: Apache-HttpClient\/4.5.12 (Java\/17.0.10)\n1 > Accept-Encoding: gzip,deflate\n\n\n18:28:43.833 response time in milliseconds: 997\n1 < 200\n1 < Date: Mon, 01 Apr 2024 12:58:43 GMT\n1 < Content-Type: application\/json; charset=utf-8\n1 < Transfer-Encoding: chunked\n1 < Connection: keep-alive\n1 < Cache-Control: max-age=0, private, must-revalidate\n1 < etag: W\/\"af9b697d67a8d5cdb83918c0021aab9d\"\n1 < referrer-policy: strict-origin-when-cross-origin\n1 < vary: Origin\n1 < x-content-type-options: nosniff\n1 < x-download-options: noopen\n1 < x-frame-options: SAMEORIGIN\n1 < x-links-current: https:\/\/gorest.co.in\/public\/v2\/users?page=1\n1 < x-links-next: https:\/\/gorest.co.in\/public\/v2\/users?page=2\n1 < x-links-previous: \n1 < x-pagination-limit: 10\n1 < x-pagination-page: 1\n1 < x-pagination-pages: 139\n1 < x-pagination-total: 1388\n1 < x-permitted-cross-domain-policies: none\n1 < x-request-id: 72bf8ebe-2a60-4443-9b85-111c05668e39\n1 < x-runtime: 0.050476\n1 < x-xss-protection: 0\n1 < CF-Cache-Status: DYNAMIC\n1 < Report-To: {\"endpoints\":[{\"url\":\"https:\\\/\\\/a.nel.cloudflare.com\\\/report\\\/v4?s=MN5BChQLPw0oSVSh4%2FSjqxaNShiMk8cg5EoXBpc8%2F0Qg%2FzG3NEePHeZ04yQ0TYTRwXof2lGdok6%2BCjtolIXOZo0V0nirY1qXo0MdaFjYYi58efDF5IXddW4%2Fwz98KuA%3D\"}],\"group\":\"cf-nel\",\"max_age\":604800}\n1 < NEL: {\"success_fraction\":0,\"report_to\":\"cf-nel\",\"max_age\":604800}\n1 < Server: cloudflare\n1 < CF-RAY: 86d8c0923e4c5fad-MRS\n1 < alt-svc: h3=\":443\"; ma=86400\n[{\"id\":6814180,\"name\":\"Ms. Dhanapati Johar\",\"email\":\"ms_johar_dhanapati@gusikowski-gulgowski.example\",\"gender\":\"female\",\"status\":\"active\"},{\"id\":6814179,\"name\":\"Akshita Talwar\",\"email\":\"akshita_talwar@corwin.test\",\"gender\":\"female\",\"status\":\"active\"},{\"id\":6814175,\"name\":\"Shresth Mukhopadhyay DC\",\"email\":\"mukhopadhyay_dc_shresth@farrell.test\",\"gender\":\"male\",\"status\":\"active\"},{\"id\":6814165,\"name\":\"Dhanalakshmi Johar\",\"email\":\"dhanalakshmi_johar@considine.example\",\"gender\":\"female\",\"status\":\"active\"},{\"id\":6814162,\"name\":\"Nirbhay Achari\",\"email\":\"nirbhay_achari@sporer-hilll.example\",\"gender\":\"male\",\"status\":\"active\"},{\"id\":6814159,\"name\":\"Pranay Marar\",\"email\":\"marar_pranay@boyle.example\",\"gender\":\"male\",\"status\":\"active\"},{\"id\":6814156,\"name\":\"Kailash Gupta\",\"email\":\"gupta_kailash@nicolas-reilly.example\",\"gender\":\"female\",\"status\":\"active\"},{\"id\":6814151,\"name\":\"Kanti Bandopadhyay\",\"email\":\"bandopadhyay_kanti@hilll-borer.example\",\"gender\":\"male\",\"status\":\"active\"},{\"id\":6814149,\"name\":\"Trilokesh Varrier\",\"email\":\"varrier_trilokesh@wilkinson-gerlach.test\",\"gender\":\"male\",\"status\":\"active\"},{\"id\":6814148,\"name\":\"Suma Iyengar Jr.\",\"email\":\"suma_iyengar_jr@cruickshank-lesch.example\",\"gender\":\"male\",\"status\":\"active\"}]\n\n"},{"result":{"nanos":27600,"millis":0.0276,"status":"passed"},"step":{"line":7,"prefix":"Then","index":4,"text":"status 200"}},{"result":{"nanos":51995100,"millis":51.9951,"status":"passed"},"step":{"line":8,"prefix":"*","index":5,"text":"print response"},"stepLog":"18:28:43.890 [print] [\n  {\n    \"id\": 6814180,\n    \"name\": \"Ms. Dhanapati Johar\",\n    \"email\": \"ms_johar_dhanapati@gusikowski-gulgowski.example\",\n    \"gender\": \"female\",\n    \"status\": \"active\"\n  },\n  {\n    \"id\": 6814179,\n    \"name\": \"Akshita Talwar\",\n    \"email\": \"akshita_talwar@corwin.test\",\n    \"gender\": \"female\",\n    \"status\": \"active\"\n  },\n  {\n    \"id\": 6814175,\n    \"name\": \"Shresth Mukhopadhyay DC\",\n    \"email\": \"mukhopadhyay_dc_shresth@farrell.test\",\n    \"gender\": \"male\",\n    \"status\": \"active\"\n  },\n  {\n    \"id\": 6814165,\n    \"name\": \"Dhanalakshmi Johar\",\n    \"email\": \"dhanalakshmi_johar@considine.example\",\n    \"gender\": \"female\",\n    \"status\": \"active\"\n  },\n  {\n    \"id\": 6814162,\n    \"name\": \"Nirbhay Achari\",\n    \"email\": \"nirbhay_achari@sporer-hilll.example\",\n    \"gender\": \"male\",\n    \"status\": \"active\"\n  },\n  {\n    \"id\": 6814159,\n    \"name\": \"Pranay Marar\",\n    \"email\": \"marar_pranay@boyle.example\",\n    \"gender\": \"male\",\n    \"status\": \"active\"\n  },\n  {\n    \"id\": 6814156,\n    \"name\": \"Kailash Gupta\",\n    \"email\": \"gupta_kailash@nicolas-reilly.example\",\n    \"gender\": \"female\",\n    \"status\": \"active\"\n  },\n  {\n    \"id\": 6814151,\n    \"name\": \"Kanti Bandopadhyay\",\n    \"email\": \"bandopadhyay_kanti@hilll-borer.example\",\n    \"gender\": \"male\",\n    \"status\": \"active\"\n  },\n  {\n    \"id\": 6814149,\n    \"name\": \"Trilokesh Varrier\",\n    \"email\": \"varrier_trilokesh@wilkinson-gerlach.test\",\n    \"gender\": \"male\",\n    \"status\": \"active\"\n  },\n  {\n    \"id\": 6814148,\n    \"name\": \"Suma Iyengar Jr.\",\n    \"email\": \"suma_iyengar_jr@cruickshank-lesch.example\",\n    \"gender\": \"male\",\n    \"status\": \"active\"\n  }\n]\n \n"},{"result":{"nanos":1631400,"millis":1.6314,"status":"passed"},"step":{"line":9,"prefix":"*","index":6,"text":"print response.length"},"stepLog":"18:28:43.892 [print] 10 \n"}],"executorName":"main","line":2,"name":"user data","description":"","durationMillis":1554.2634,"startTime":1711976322210,"failed":false,"refId":"[1:2]","endTime":1711976323892,"exampleIndex":-1},{"sectionIndex":1,"stepResults":[{"result":{"nanos":318200,"millis":0.3182,"status":"passed"},"step":{"line":13,"prefix":"Given","index":0,"text":"url 'https:\/\/api.instantwebtools.net'"}},{"result":{"nanos":191400,"millis":0.1914,"status":"passed"},"step":{"line":14,"prefix":"And","index":1,"text":"path \"v1\/airlines\""}},{"result":{"nanos":148000,"millis":0.148,"status":"passed"},"step":{"line":15,"prefix":"And","index":2,"text":"path \"13\""}},{"result":{"nanos":200500,"millis":0.2005,"status":"passed"},"step":{"line":16,"prefix":"And","index":3,"text":"header X-Request-id = \"Test123\""}},{"result":{"nanos":118493200,"errorMessage":"http call failed after 118 milliseconds for url: https:\/\/api.instantwebtools.net\/v1\/airlines\/13\nsrc\/test\/java\/features\/queryparam.feature:17","millis":118.4932,"status":"failed"},"step":{"line":17,"prefix":"When","index":4,"text":"method get"},"stepLog":"18:28:43.903 request:\n1 > GET https:\/\/api.instantwebtools.net\/v1\/airlines\/13\n1 > X-Request-id: Test123\n1 > Host: api.instantwebtools.net\n1 > Connection: Keep-Alive\n1 > User-Agent: Apache-HttpClient\/4.5.12 (Java\/17.0.10)\n1 > Accept-Encoding: gzip,deflate\n\n\n18:28:44.019 java.net.UnknownHostException: No such host is known (api.instantwebtools.net), http call failed after 118 milliseconds for url: https:\/\/api.instantwebtools.net\/v1\/airlines\/13\n18:28:44.020 src\/test\/java\/features\/queryparam.feature:17\nWhen method get\nhttp call failed after 118 milliseconds for url: https:\/\/api.instantwebtools.net\/v1\/airlines\/13\nsrc\/test\/java\/features\/queryparam.feature:17\n"},{"result":{"nanos":0,"millis":0.0,"status":"skipped"},"step":{"line":18,"prefix":"Then","index":5,"text":"status 200"}},{"result":{"nanos":0,"millis":0.0,"status":"skipped"},"step":{"line":19,"prefix":"And","index":6,"text":"match responseStatus == 200"}},{"result":{"nanos":0,"millis":0.0,"status":"skipped"},"step":{"line":20,"prefix":"And","index":7,"text":"assert responseStatus == 200"}},{"result":{"nanos":0,"millis":0.0,"status":"skipped"},"step":{"line":21,"prefix":"And","index":8,"text":"print \"response status code is as below -\" + responseStatus"}},{"result":{"nanos":0,"millis":0.0,"status":"skipped"},"step":{"line":22,"prefix":"And","index":9,"text":"print responseStatus"}},{"result":{"nanos":0,"millis":0.0,"status":"skipped"},"step":{"line":23,"prefix":"And","index":10,"text":"match response == {\"name\":\"Sri Lankan Airways\",\"id\":13, \"country\":\"Sri Lanka\",\"logo\":\"https:\/\/upload.wikimedia.org\/wikipedia\/en\/thumb\/9\/9b\/Qatar_Airways_Logo.svg\/sri_lanka.png\",\"slogan\":\"From Sri Lanka\",\"head_quaters\":\"Katunayake, Sri Lanka\",\"website\":\"www.srilankaairways.com\",\"established\":\"1990\"}"}},{"result":{"nanos":0,"millis":0.0,"status":"skipped"},"step":{"line":24,"prefix":"And","index":11,"text":"match $ == {\"name\":\"Sri Lankan Airways\",\"id\":13, \"country\":\"Sri Lanka\",\"logo\":\"https:\/\/upload.wikimedia.org\/wikipedia\/en\/thumb\/9\/9b\/Qatar_Airways_Logo.svg\/sri_lanka.png\",\"slogan\":\"From Sri Lanka\",\"head_quaters\":\"Katunayake, Sri Lanka\",\"website\":\"www.srilankaairways.com\",\"established\":\"1990\"}"}},{"result":{"nanos":0,"millis":0.0,"status":"skipped"},"step":{"line":25,"prefix":"And","index":12,"text":"match response.name == \"Sri Lankan Airways\""}},{"result":{"nanos":0,"millis":0.0,"status":"skipped"},"step":{"line":26,"prefix":"And","index":13,"text":"match $.name == \"Sri Lankan Airways\""}},{"result":{"nanos":0,"millis":0.0,"status":"skipped"},"step":{"line":27,"prefix":"And","index":14,"text":"print responseHeaders"}},{"result":{"nanos":0,"millis":0.0,"status":"skipped"},"step":{"line":28,"prefix":"And","index":15,"text":"print responseHeaders[\"Content-Type\"][0]"}},{"result":{"nanos":0,"millis":0.0,"status":"skipped"},"step":{"line":29,"prefix":"And","index":16,"text":"match header Content-Type == \"application\/json; charset=utf-8\""}},{"result":{"nanos":0,"millis":0.0,"status":"skipped"},"step":{"line":30,"prefix":"And","index":17,"text":"match header Content-Type contains \"application\/json\""}},{"result":{"nanos":0,"millis":0.0,"status":"skipped"},"step":{"line":31,"prefix":"And","index":18,"text":"match karate.response.header('Content-Type') == \"application\/json; charset=utf-8\""}}],"line":12,"description":"","durationMillis":119.3513,"failed":true,"error":"http call failed after 118 milliseconds for url: https:\/\/api.instantwebtools.net\/v1\/airlines\/13\nsrc\/test\/java\/features\/queryparam.feature:17","executorName":"main","name":"Get airline data using ID - Basic assertions","startTime":1711976323899,"refId":"[2:12]","endTime":1711976324020,"exampleIndex":-1},{"sectionIndex":2,"stepResults":[{"result":{"nanos":301800,"millis":0.3018,"status":"passed"},"step":{"line":35,"prefix":"Given","index":0,"text":"url 'https:\/\/gorest.co.in\/public\/v1\/users'"}},{"result":{"nanos":747869800,"millis":747.8698,"status":"passed"},"step":{"line":36,"prefix":"When","index":1,"text":"method GET"},"stepLog":"18:28:44.026 request:\n1 > GET https:\/\/gorest.co.in\/public\/v1\/users\n1 > Host: gorest.co.in\n1 > Connection: Keep-Alive\n1 > User-Agent: Apache-HttpClient\/4.5.12 (Java\/17.0.10)\n1 > Accept-Encoding: gzip,deflate\n\n\n18:28:44.771 response time in milliseconds: 745\n1 < 200\n1 < Date: Mon, 01 Apr 2024 12:58:44 GMT\n1 < Content-Type: application\/json; charset=utf-8\n1 < Transfer-Encoding: chunked\n1 < Connection: keep-alive\n1 < Cache-Control: max-age=0, private, must-revalidate\n1 < etag: W\/\"aa62bb6072f0b671d6298f08322b4679\"\n1 < referrer-policy: strict-origin-when-cross-origin\n1 < vary: Origin\n1 < x-content-type-options: nosniff\n1 < x-download-options: noopen\n1 < x-frame-options: SAMEORIGIN\n1 < x-permitted-cross-domain-policies: none\n1 < x-request-id: f0421083-ca15-45ae-b1b3-d1eb3f12ad3b\n1 < x-runtime: 0.067648\n1 < x-xss-protection: 0\n1 < CF-Cache-Status: DYNAMIC\n1 < Report-To: {\"endpoints\":[{\"url\":\"https:\\\/\\\/a.nel.cloudflare.com\\\/report\\\/v4?s=yTv72HXLzZP0tWGu0%2BB8SYm5WLKTdfceaNnhndeVB%2Fn%2F3o%2FH4NuBV8KxFx9yUjIK0RXw112SnaoeDO%2FrPg6R9DkGxurTTkN5CKmmEMBJVD8GPgUJB5naOZYHg6%2FFXEw%3D\"}],\"group\":\"cf-nel\",\"max_age\":604800}\n1 < NEL: {\"success_fraction\":0,\"report_to\":\"cf-nel\",\"max_age\":604800}\n1 < Server: cloudflare\n1 < CF-RAY: 86d8c0980fed020c-CDG\n1 < alt-svc: h3=\":443\"; ma=86400\n{\"meta\":{\"pagination\":{\"total\":2838,\"pages\":284,\"page\":1,\"limit\":10,\"links\":{\"previous\":null,\"current\":\"https:\/\/gorest.co.in\/public\/v1\/users?page=1\",\"next\":\"https:\/\/gorest.co.in\/public\/v1\/users?page=2\"}}},\"data\":[{\"id\":6814180,\"name\":\"Ms. Dhanapati Johar\",\"email\":\"ms_johar_dhanapati@gusikowski-gulgowski.example\",\"gender\":\"female\",\"status\":\"active\"},{\"id\":6814179,\"name\":\"Akshita Talwar\",\"email\":\"akshita_talwar@corwin.test\",\"gender\":\"female\",\"status\":\"active\"},{\"id\":6814176,\"name\":\"Miss Deeptimay Tandon\",\"email\":\"miss_deeptimay_tandon@collins.test\",\"gender\":\"male\",\"status\":\"inactive\"},{\"id\":6814175,\"name\":\"Shresth Mukhopadhyay DC\",\"email\":\"mukhopadhyay_dc_shresth@farrell.test\",\"gender\":\"male\",\"status\":\"active\"},{\"id\":6814174,\"name\":\"Sen. Mahesh Embranthiri\",\"email\":\"embranthiri_sen_mahesh@harris-wuckert.test\",\"gender\":\"male\",\"status\":\"inactive\"},{\"id\":6814173,\"name\":\"Guru Singh\",\"email\":\"guru_singh@reinger.test\",\"gender\":\"male\",\"status\":\"inactive\"},{\"id\":6814172,\"name\":\"Deeptanshu Sethi VM\",\"email\":\"sethi_deeptanshu_vm@nolan-quitzon.example\",\"gender\":\"female\",\"status\":\"inactive\"},{\"id\":6814171,\"name\":\"Bharat Gowda\",\"email\":\"bharat_gowda@rowe.test\",\"gender\":\"male\",\"status\":\"inactive\"},{\"id\":6814170,\"name\":\"Balaaditya Gowda\",\"email\":\"gowda_balaaditya@strosin.example\",\"gender\":\"male\",\"status\":\"inactive\"},{\"id\":6814169,\"name\":\"Adhiraj Guneta\",\"email\":\"adhiraj_guneta@runolfsdottir.example\",\"gender\":\"female\",\"status\":\"inactive\"}]}\n\n"},{"result":{"nanos":12100,"millis":0.0121,"status":"passed"},"step":{"line":37,"prefix":"Then","index":2,"text":"status 200"}},{"result":{"nanos":1228700,"millis":1.2287,"status":"passed"},"step":{"line":38,"prefix":"*","index":3,"text":"print response"},"stepLog":"18:28:44.774 [print] {\n  \"meta\": {\n    \"pagination\": {\n      \"total\": 2838,\n      \"pages\": 284,\n      \"page\": 1,\n      \"limit\": 10,\n      \"links\": {\n        \"previous\": null,\n        \"current\": \"https:\/\/gorest.co.in\/public\/v1\/users?page=1\",\n        \"next\": \"https:\/\/gorest.co.in\/public\/v1\/users?page=2\"\n      }\n    }\n  },\n  \"data\": [\n    {\n      \"id\": 6814180,\n      \"name\": \"Ms. Dhanapati Johar\",\n      \"email\": \"ms_johar_dhanapati@gusikowski-gulgowski.example\",\n      \"gender\": \"female\",\n      \"status\": \"active\"\n    },\n    {\n      \"id\": 6814179,\n      \"name\": \"Akshita Talwar\",\n      \"email\": \"akshita_talwar@corwin.test\",\n      \"gender\": \"female\",\n      \"status\": \"active\"\n    },\n    {\n      \"id\": 6814176,\n      \"name\": \"Miss Deeptimay Tandon\",\n      \"email\": \"miss_deeptimay_tandon@collins.test\",\n      \"gender\": \"male\",\n      \"status\": \"inactive\"\n    },\n    {\n      \"id\": 6814175,\n      \"name\": \"Shresth Mukhopadhyay DC\",\n      \"email\": \"mukhopadhyay_dc_shresth@farrell.test\",\n      \"gender\": \"male\",\n      \"status\": \"active\"\n    },\n    {\n      \"id\": 6814174,\n      \"name\": \"Sen. Mahesh Embranthiri\",\n      \"email\": \"embranthiri_sen_mahesh@harris-wuckert.test\",\n      \"gender\": \"male\",\n      \"status\": \"inactive\"\n    },\n    {\n      \"id\": 6814173,\n      \"name\": \"Guru Singh\",\n      \"email\": \"guru_singh@reinger.test\",\n      \"gender\": \"male\",\n      \"status\": \"inactive\"\n    },\n    {\n      \"id\": 6814172,\n      \"name\": \"Deeptanshu Sethi VM\",\n      \"email\": \"sethi_deeptanshu_vm@nolan-quitzon.example\",\n      \"gender\": \"female\",\n      \"status\": \"inactive\"\n    },\n    {\n      \"id\": 6814171,\n      \"name\": \"Bharat Gowda\",\n      \"email\": \"bharat_gowda@rowe.test\",\n      \"gender\": \"male\",\n      \"status\": \"inactive\"\n    },\n    {\n      \"id\": 6814170,\n      \"name\": \"Balaaditya Gowda\",\n      \"email\": \"gowda_balaaditya@strosin.example\",\n      \"gender\": \"male\",\n      \"status\": \"inactive\"\n    },\n    {\n      \"id\": 6814169,\n      \"name\": \"Adhiraj Guneta\",\n      \"email\": \"adhiraj_guneta@runolfsdottir.example\",\n      \"gender\": \"female\",\n      \"status\": \"inactive\"\n    }\n  ]\n}\n \n"},{"result":{"nanos":625700,"millis":0.6257,"status":"passed"},"step":{"line":39,"prefix":"When","index":4,"text":"def output = []"}},{"result":{"nanos":24601900,"errorMessage":"js failed:\n>>>>\n01: for(var i=0;i<response.data.length;i++)\n<<<<\norg.graalvm.polyglot.PolyglotException: SyntaxError: Unnamed:1:39 Expected ; but found eof\r\nfor(var i=0;i<response.data.length;i++)\r\n                                       ^\n\n- org.graalvm.polyglot.Context.eval(Context.java:401)\n- com.intuit.karate.graal.JsEngine.evalForValue(JsEngine.java:141)\n- com.intuit.karate.graal.JsEngine.eval(JsEngine.java:137)\n- com.intuit.karate.core.ScenarioEngine.evalJs(ScenarioEngine.java:1344)\n- com.intuit.karate.ScenarioActions.eval(ScenarioActions.java:376)\n- java.base\/jdk.internal.reflect.NativeMethodAccessorImpl.invoke0(Native Method)\n- java.base\/jdk.internal.reflect.NativeMethodAccessorImpl.invoke(NativeMethodAccessorImpl.java:77)\n\nsrc\/test\/java\/features\/queryparam.feature:40","millis":24.6019,"status":"failed"},"step":{"line":40,"prefix":"And","index":5,"text":"eval for(var i=0;i<response.data.length;i++)"},"stepLog":"18:28:44.799 src\/test\/java\/features\/queryparam.feature:40\nAnd eval for(var i=0;i<response.data.length;i++)\njs failed:\n>>>>\n01: for(var i=0;i<response.data.length;i++)\n<<<<\norg.graalvm.polyglot.PolyglotException: SyntaxError: Unnamed:1:39 Expected ; but found eof\r\nfor(var i=0;i<response.data.length;i++)\r\n                                       ^\n\n- org.graalvm.polyglot.Context.eval(Context.java:401)\n- com.intuit.karate.graal.JsEngine.evalForValue(JsEngine.java:141)\n- com.intuit.karate.graal.JsEngine.eval(JsEngine.java:137)\n- com.intuit.karate.core.ScenarioEngine.evalJs(ScenarioEngine.java:1344)\n- com.intuit.karate.ScenarioActions.eval(ScenarioActions.java:376)\n- java.base\/jdk.internal.reflect.NativeMethodAccessorImpl.invoke0(Native Method)\n- java.base\/jdk.internal.reflect.NativeMethodAccessorImpl.invoke(NativeMethodAccessorImpl.java:77)\n\nsrc\/test\/java\/features\/queryparam.feature:40\n"},{"result":{"nanos":0,"millis":0.0,"status":"skipped"},"step":{"line":41,"prefix":"Then","index":6,"text":"print 'hello'"}}],"line":34,"description":"","durationMillis":774.64,"failed":true,"error":"js failed:\n>>>>\n01: for(var i=0;i<response.data.length;i++)\n<<<<\norg.graalvm.polyglot.PolyglotException: SyntaxError: Unnamed:1:39 Expected ; but found eof\r\nfor(var i=0;i<response.data.length;i++)\r\n                                       ^\n\n- org.graalvm.polyglot.Context.eval(Context.java:401)\n- com.intuit.karate.graal.JsEngine.evalForValue(JsEngine.java:141)\n- com.intuit.karate.graal.JsEngine.eval(JsEngine.java:137)\n- com.intuit.karate.core.ScenarioEngine.evalJs(ScenarioEngine.java:1344)\n- com.intuit.karate.ScenarioActions.eval(ScenarioActions.java:376)\n- java.base\/jdk.internal.reflect.NativeMethodAccessorImpl.invoke0(Native Method)\n- java.base\/jdk.internal.reflect.NativeMethodAccessorImpl.invoke(NativeMethodAccessorImpl.java:77)\n\nsrc\/test\/java\/features\/queryparam.feature:40","executorName":"main","name":"test looping","startTime":1711976324024,"refId":"[3:34]","endTime":1711976324799,"exampleIndex":-1}],"callDepth":0,"name":"API call","description":"","resultDate":"2024-04-01 06:28:44 pm","durationMillis":2448.2547,"passedCount":1}